-3
0
0
0
-1
0
0
0
-1
-1
0
0
0
-1
-1
0
0
0
0
0
-1
0
0
0
-1
0
0
0
0
0
0
0
-1
-1
-1
-1
-1
-1
-1
-1
-1
-1
-1
-1
-1
-1
-1
-1
0
-1
-1
-1
-1
-1
0
-1
-1
0
0
0
0
-1
-1
0
0
0
0
0
-1
0
0
0
-1
-1
0
0
0
-1
-1
-1
-1
-1
-1
0
0
0
0
0
0
0
0
0
0
0
0
0
0
0
0
0
0
0
0
0
-1
-1
0
0
-1
-1
0
0
0
0
0
0
-1
0
0
0
0
0
0
0
0
0
-1
-1
-1
-1
0
-1
-1
-1
-1
-1
-1
-1
-1
-1
-1
-1
0
-1
-1
-1
-1
-1
0
0
0
-1
0
0
0
0
0
0
0
0
0
0
0
0
0
0
0
0
0
0
-1
-1
-1
-1
-1
-1
-1
-1
-1
-1
-1
-1
-1
-1
-1
-1
-1
-1
-1
-1
-1
-1
-1
-1
0
-1
-1
-1
0
-1
0
0
0
0
0
-1
-1
0
0
-1
0
0
0
0
0
-1
0
-1
0
0
0
0
0
0
0
0
0
0
0
0
0
-1
-1
-1
-1
-1
-1
-1
-1
-1
-1
-1
-1
-1
-1
-1
0
-1
0
-1
-1
0
0
0
-1
-1
0
0
0
-1
-1
0
0
-1
-1
-1
0
0
0
0
0
0
0
0
-1
-1
-1
0
0
0
-1
0
0
0
0
0
0
0
0
0
0
0
0
0
0
-1
-1
-1
-1
-1
0
-1
-1
-1
0
0
0
-1
-1
-1
-1
0
-1
-1
-1
-1
0
0
-1
0
0
0
0
0
-1
-1
-1
-1
-1
-1
0
0
0
-1
-1
-1
0
0
0
0
0
0
0
0
0
-1
-1
-1
0
-1
-1
0
0
-1
-1
-1
-1
-1
-1
-1
-1
-1
-1
-1
-1
-1
-1
-1
-1
-1
-1
-1
-1
-1
-1
-1
-1
0
0
0
0
0
0
0
0
0
0
0
0
0
-1
-1
-1
-1
-1
-1
-1
-1
-1
-1
0
-1
-1
-1
-1
-1
-1
-1
-1
-1
-1
-1
-1
-1
-1
0
0
-1
-1
-1
0
0
0
0
0
0
0
0
0
0
0
0
0
0
0
-1
-1
0
0
0
0
0
0
0
0
0
0
-1
-1
-1
-1
-1
-1
-1
-1
-1
-1
-1
-1
-1
-1
-1
-1
-1
0
-1
-1
0
0
0
-1
0
0
0
-1
0
0
-1
-1
-1
0
-1
-1
0
0
0
0
0
0
0
0
0
0
0
0
0
0
0
0
-1
-1
0
-1
-1
-1
-1
-1
-1
0
-1
-1
-1
-1
-1
-1
-1
-1
-1
-1
-1
0
0
-1
-1
0
-1
-1
0
0
0
0
0
0
0
0
-1
-1
0
0
-1
-1
0
-1
0
0
0
0
0
0
0
0
0
0
0
0
0
0
0
0
0
0
-1
-1
-1
-1
-1
-1
-1
-1
-1
-1
-1
-1
-1
-1
-1
-1
-1
-1
-1
-1
-1
-1
-1
0
0
0
0
0
0
0
0
0
0
0
0
0
0
-1
-1
-1
-1
-1
0
0
0
0
0
-1
-1
0
0
-1
0
0
0
-1
-1
-1
0
0
-1
-1
-1
-1
-1
0
0
-1
-1
0
0
0
-1
0
0
0
-1
-1
-1
0
0
0
0
0
0
0
0
0
0
0
0
0
0
-1
-1
-1
0
0
0
0
0
0
0
-1
-1
-1
-1
0
-1
-1
0
0
-1
0
-1
-1
-1
-1
-1
-1
-1
-1
-1
-1
-1
-1
-1
-1
-1
-1
-1
-1
0
0
0
-1
0
0
0
0
0
0
-1
0
0
0
-1
-1
0
0
0
0
-1
0
0
0
0
0
0
0
0
0
0
0
0
0
-1
-1
-1
-1
-1
-1
-1
-1
0
-1
-1
0
0
0
0
0
-1
0
0
0
-1
0
-1
-1
-1
0
0
0
0
0
0
0
0
0
0
0
0
0
0
0
0
0
0
0
0
0
0
0
0
0
0
0
-1
-1
-1
-1
-1
-1
-1
-1
-1
-1
-1
-1
-1
-1
-1
-1
0
-1
-1
0
0
0
-1
-1
-1
0
0
-1
-1
-1
-1
-1
-1
-1
-1
-1
0
0
0
0
0
0
0
0
0
0
0
-1
-1
-1
-1
-1
0
0
0
0
0
0
0
0
0
0
0
-1
-1
-1
-1
-1
-1
-1
-1
-1
-1
-1
-1
-1
-1
-1
0
0
0
0
0
-1
-1
-1
-1
0
0
0
0
0
0
0
0
0
0
-1
-1
-1
-1
-1
-1
0
0
0
0
-1
-1
-1
-1
-1
-1
-1
-1
-1
-1
-1
-1
-1
-1
-1
-1
-1
-1
-1
-1
-1
-1
-1
-1
-1
0
0
0
0
0
-1
0
0
0
0
0
-1
-1
0
0
-1
0
0
-1
-1
0
0
0
0
-1
-1
-1
0
0
0
-1
-1
0
0
-1
-1
0
0
0
0
0
-1
-1
-1
-1
-1
-1
-1
-1
-1
-1
-1
-1
-1
0
0
0
0
0
0
0
0
0
0
0
0
0
0
0
0
0
0
0
0
0
-1
-1
0
0
-1
-1
-1
0
-1
-1
-1
-1
-1
-1
-1
0
0
0
0
0
0
0
0
0
-1
-1
0
0
0
-1
0
0
-1
-1
-1
0
-1
-1
0
0
-1
0
0
0
0
0
0
0
-1
-1
-1
0
0
0
-1
-1
0
0
0
-1
-1
-1
0
0
0
-1
-1
-1
-1
0
0
-1
-1
0
0
0
-1
-1
0
0
0
-1
-1
0
-1
-1
-1
-1
-1
0
-1
-1
0
0
0
0
0
0
0
0
0
0
0
0
0
0
0
0
-1
-1
0
-1
-1
0
0
0
0
0
-1
0
0
0
0
0
0
0
0
0
0
0
0
-1
-1
0
-1
-1
0
-1
-1
-1
-1
-1
-1
-1
-1
-1
-1
-1
-1
0
0
0
0
0
-1
-1
0
-1
-1
-1
-1
-1
-1
-1
-1
-1
-1
0
0
0
-1
0
0
0
0
0
0
0
0
0
0
0
-1
-1
-1
0
0
0
0
-1
-1
-1
-1
-1
-1
-1
-1
-1
-1
0
0
0
0
0
0
0
0
0
-1
0
0
0
0
-1
-1
-1
-1
-1
-1
-1
-1
-1
0
0
0
0
0
0
0
0
0
0
-1
-1
-1
-1
-1
-1
-1
-1
-1
-1
0
0
-1
-1
-1
-1
0
0
0
0
0
-1
-1
-1
-1
-1
-1
-1
0
0
0
0
0
0
0
0
0
0
0
0
0
-1
0
0
-1
-1
-1
-1
-1
-1
-1
-1
-1
-1
-1
0
-1
-1
-1
-1
-1
-1
-1
-1
-1
-1
-1
0
0
0
0
0
0
0
0
0
0
0
0
0
0
0
0
-1
-1
0
0
0
-1
0
0
0
0
0
0
0
0
-1
-1
-1
-1
-1
-1
-1
-1
-1
-1
-1
-1
-1
-1
0
-1
-1
-1
0
0
0
0
0
0
0
0
0
0
0
0
0
-1
-1
0
0
0
0
-1
0
0
0
0
-1
0
0
0
0
0
0
0
0
-1
-1
-1
-1
-1
-1
-1
-1
-1
-1
-1
-1
-1
-1
-1
0
0
0
-1
0
0
0
0
0
0
0
0
0
0
0
0
0
0
0
0
0
-1
0
0
0
0
0
0
-1
-1
0
-1
-1
0
-1
-1
-1
-1
-1
-1
-1
-1
-1
0
0
0
0
0
-1
0
-1
0
0
0
-1
0
0
0
-1
0
-1
-1
-1
-1
-1
-1
-1
-1
-1
-1
-1
-1
-1
-1
-1
-1
-1
-1
-1
-1
-1
0
-1
-1
0
0
0
0
-1
-1
-1
-1
-1
-1
-1
-1
-1
-1
-1
-1
0
-1
-1
-1
-1
-1
0
0
0
0
0
0
-1
-1
-1
-1
-1
-1
-1
-1
-1
-1
-1
-1
-1
-1
-1
-1
0
0
-1
-1
0
-1
-1
0
0
0
0
0
0
0
0
0
-1
-1
-1
-1
-1
-1
-1
-1
-1
-1
-1
-1
0
0
0
-1
0
0
-1
-1
-1
-1
-1
0
-1
-1
-1
-1
-1
-1
-1
0
0
0
0
0
0
0
0
0
0
-1
-1
0
0
0
0
0
0
0
0
0
0
-1
0
0
0
0
0
0
0
0
-1
-1
-1
-1
-1
-1
-1
-1
-1
-1
-1
-1
-1
-1
-1
-1
-1
0
-1
-1
-1
-1
-1
-1
0
0
0
-1
0
0
0
-1
0
0
0
0
0
-1
0
0
-1
-1
-1
0
0
-1
0
0
0
0
0
0
-1
-1
-1
-1
-1
0
0
-1
-1
0
-1
-1
-1
-1
-1
0
0
-1
-1
-1
-1
-1
-1
-1
-1
-1
0
0
0
0
0
0
0
0
-1
-1
0
0
0
-1
-1
-1
0
0
0
-1
0
0
0
0
-1
-1
0
0
-1
-1
-1
-1
0
0
0
-1
-1
0
-1
-1
-1
0
0
0
0
0
0
0
-1
-1
0
0
0
0
0
0
0
-1
0
0
-1
-1
-1
-1
-1
-1
0
0
0
0
0
-1
0
0
0
0
0
0
0
0
0
0
0
0
0
0
-1
-1
0
-1
-1
0
0
-1
0
-1
-1
-1
-1
-1
-1
-1
-1
-1
0
-1
-1
0
0
0
-1
-1
-1
-1
-1
-1
-1
-1
0
0
-1
-1
-1
-1
-1
0
-1
-1
-1
0
-1
-1
-1
-1
-1
-1
0
-1
-1
-1
0
0
0
0
0
0
0
-1
0
0
0
-1
-1
-1
-1
-1
-1
-1
-1
0
0
0
0
-1
-1
0
0
-1
-1
0
0
0
0
0
-1
0
0
0
0
-1
0
0
-1
-1
-1
-1
0
-1
-1
-1
-1
-1
-1
-1
-1
-1
0
0
-1
-1
-1
0
-1
-1
-1
-1
-1
-1
-1
-1
-1
-1
-1
0
0
0
0
0
0
0
0
0
0
0
0
0
0
0
0
0
0
0
0
0
-1
-1
0
0
0
0
0
0
0
0
0
0
0
0
0
0
-1
-1
0
0
-1
-1
-1
0
0
-1
-1
-1
-1
-1
-1
-1
-1
-1
-1
-1
-1
-1
-1
0
-1
-1
-1
0
0
0
0
0
0
0
-1
-1
-1
-1
0
0
-1
-1
0
0
0
0
0
0
0
0
0
-1
0
0
0
-1
0
0
0
0
-1
-1
0
0
0
-1
-1
-1
-1
0
0
0
-1
-1
-1
-1
-1
0
-1
-1
-1
-1
-1
-1
-1
0
0
0
-1
-1
-1
-1
-1
-1
-1
-1
-1
-1
-1
-1
-1
0
0
0
0
-1
-1
-1
-1
-1
-1
-1
-1
-1
-1
-1
-1
-1
-1
-1
-1
-1
-1
-1
0
-1
-1
-1
-1
-1
-1
-1
-1
-1
-1
-1
-1
-1
-1
-1
-1
0
0
-1
0
-1
-1
-1
0
-1
0
0
0
0
0
0
0
0
0
-1
0
0
0
-1
-1
0
0
-1
-1
-1
-1
0
0
-1
0
-1
-1
0
-1
-1
-1
-1
0
0
-1
-1
-1
-1
-1
-1
-1
0
0
-1
-1
0
0
0
-1
-1
0
-1
0
-1
-1
-1
-1
-1
-1
-1
-1
-1
-1
-1
-1
-1
-1
0
0
-1
-1
-1
0
0
-1
0
0
0
0
-1
-1
-1
-1
-1
-1
-1
-1
-1
0
0
0
-1
-1
-1
0
0
0
-1
0
0
0
-1
-1
-1
-1
-1
-1
-1
0
-1
-1
-1
-1
-1
-1
-1
0
0
0
0
0
-1
-1
-1
-1
-1
0
0
-1
-1
-1
-1
-1
-1
-1
-1
-1
-1
-1
-1
-1
-1
-1
-1
-1
-1
-1
-1
0
0
-1
-1
-1
0
-1
-1
-1
-1
-1
-1
-1
-1
-1
-1
-1
-1
-1
-1
-1
-1
-1
-1
-1
-1
-1
-1
-1
-1
-1
-1
-1
-1
0
-1
-1
-1
-1
0
0
0
0
0
0
0
-1
-1
-1
-1
-1
-1
-1
0
0
-1
-1
-1
-1
-1
-1
-1
-1
-1
-1
-1
-1
-1
-1
-1
0
-1
-1
-1
0
0
0
-1
-1
-1
0
0
-1
-1
-1
0
0
0
0
0
0
0
0
0
-1
-1
0
0
0
0
0
-1
-1
0
-1
-1
-1
-1
-1
0
0
0
0
0
0
0
0
0
0
0
0
0
0
0
0
0
0
-1
-1
-1
-1
-1
-1
-1
-1
-1
-1
0
-1
-1
0
0
0
0
0
0
0
0
-1
-1
-1
0
0
0
-1
-1
-1
0
-1
0
-1
-1
-1
-1
-1
-1
-1
-1
-1
-1
-1
-1
-1
0
0
0
0
0
0
0
0
0
0
-1
0
0
0
0
0
0
-1
-1
-1
0
-1
-1
-1
-1
-1
-1
-1
-1
-1
-1
-1
-1
-1
-1
0
0
0
0
0
0
0
0
0
0
0
-1
-1
-1
-1
-1
0
0
0
-1
0
0
0
0
0
0
0
0
0
0
0
0
0
0
0
0
0
0
-1
-1
-1
-1
-1
-1
-1
-1
-1
-1
-1
-1
-1
-1
0
0
0
0
0
0
0
0
0
0
0
0
0
0
0
0
0
0
0
0
0
0
-1
-1
-1
-1
0
0
0
-1
-1
-1
-1
-1
-1
-1
-1
-1
-1
-1
-1
-1
0
0
-1
-1
-1
0
0
0
0
0
0
0
0
0
0
0
0
0
0
0
0
0
0
0
0
0
0
0
0
0
0
0
0
0
0
0
0
0
-1
-1
0
-1
-1
-1
-1
-1
-1
-1
-1
-1
-1
-1
-1
-1
-1
-1
-1
-1
-1
-1
0
0
0
0
0
-1
0
0
-1
0
0
0
0
0
0
0
0
0
0
0
0
0
0
-1
-1
-1
-1
0
0
0
-1
-1
-1
-1
-1
-1
-1
0
0
0
-1
0
0
-1
-1
-1
-1
-1
-1
-1
-1
-1
-1
0
-1
-1
-1
-1
-1
0
0
0
0
0
0
0
0
-1
-1
-1
0
0
-1
-1
0
-1
-1
-1
0
0
0
0
-1
-1
-1
-1
0
0
0
0
0
0
0
-1
-1
0
0
0
0
0
0
0
0
-1
-1
0
0
0
-1
-1
-1
-1
0
0
0
0
-1
-1
-1
-1
-1
-1
-1
-1
0
0
-1
-1
0
0
0
0
0
0
0
-1
-1
0
0
0
0
0
0
0
0
-1
-1
-1
0
-1
-1
-1
-1
0
0
-1
-1
-1
-1
-1
-1
-1
-1
0
0
-1
0
0
0
0
0
-1
-1
0
0
-1
-1
-1
0
-1
-1
0
-1
0
0
0
0
0
0
0
0
-1
-1
-1
-1
0
0
0
-1
0
0
-1
-1
-1
0
0
0
0
0
0
0
0
0
0
0
0
0
0
0
0
0
0
0
-1
0
0
0
0
0
0
0
-1
-1
-1
-1
0
0
0
-1
0
0
0
0
0
0
0
0
0
0
0
0
0
-1
-1
-1
0
0
0
0
0
0
0
0
0
0
0
0
0
0
0
0
0
-1
-1
0
0
-1
-1
0
0
-1
-1
0
0
0
0
0
-1
-1
0
0
0
0
0
0
0
0
0
0
0
0
0
0
0
0
0
0
0
-1
-1
0
0
0
0
0
0
0
0
0
0
0
0
0
0
0
0
0
0
0
0
0
0
0
0
0
0
0
0
0
0
0
0
0
0
0
0
0
0
0
0
0
0
0
0
0
0
0
0
0
0
0
0
0
0
0
0
0
0
0
0
-1
-1
-1
-1
0
0
-1
0
0
0
0
0
0
0
-1
0
0
-1
0
0
0
0
0
0
0
0
-1
0
0
-1
-1
-1
-1
-1
0
0
-1
-1
0
0
0
0
0
0
0
0
-1
-1
0
0
0
0
0
0
0
0
0
0
0
0
0
0
0
0
0
0
-1
-1
-1
0
-1
0
0
0
0
0
-1
-1
-1
0
0
0
0
0
0
0
-1
0
0
-1
0
0
-1
-1
0
0
0
0
0
0
0
0
0
0
0
0
-1
0
0
-1
0
0
0
0
0
0
0
0
0
0
0
0
0
0
0
0
0
0
0
0
0
0
-1
0
0
0
0
0
0
-1
-1
-1
-1
-1
-1
-1
-1
-1
0
0
0
-1
-1
0
0
0
0
0
0
0
0
0
0
0
0
0
0
0
0
0
0
0
0
0
0
0
0
0
0
0
0
0
0
0
0
0
0
0
0
-1
-1
-1
-1
-1
-1
0
-1
-1
-1
-1
-1
0
-1
-1
-1
-1
-1
-1
0
0
0
0
0
-1
-1
0
0
-1
-1
0
0
0
-1
-1
-1
-1
-1
-1
-1
0
0
0
-1
-1
0
0
0
0
0
0
0
0
0
0
0
0
0
0
0
0
0
0
-1
-1
-1
-1
-1
-1
-1
0
0
0
0
0
0
0
0
0
-1
-1
-1
-1
-1
-1
-1
-1
-1
-1
-1
-1
-1
-1
-1
-1
-1
-1
-1
-1
-1
0
0
0
0
0
0
-1
-1
-1
-1
-1
0
-1
-1
-1
-1
-1
-1
-1
-1
-1
0
0
0
0
0
-1
-1
0
-1
-1
0
0
-1
-1
-1
-1
-1
-1
-1
-1
-1
-1
-1
0
0
0
0
0
0
-1
-1
-1
0
0
0
0
0
0
0
0
0
0
0
-1
-1
0
-1
-1
-1
0
-1
-1
-1
-1
-1
-1
-1
-1
-1
-1
-1
-1
-1
-1
-1
-1
0
-1
-1
-1
-1
0
0
0
0
0
0
-1
-1
-1
-1
-1
-1
0
0
0
0
0
0
0
0
0
-1
-1
-1
-1
-1
-1
-1
-1
-1
-1
-1
-1
-1
-1
-1
-1
-1
-1
0
-1
-1
-1
-1
-1
-1
-1
-1
-1
-1
-1
0
-1
-1
-1
-1
-1
-1
-1
-1
-1
-1
-1
-1
-1
-1
-1
0
0
0
0
0
0
0
-1
0
-1
-1
-1
-1
-1
-1
-1
-1
-1
-1
-1
-1
-1
-1
-1
-1
-1
-1
-1
-1
-1
-1
-1
-1
-1
-1
-1
-1
-1
0
0
0
0
0
0
0
0
0
0
-1
-1
-1
-1
-1
0
-1
-1
0
0
0
0
-1
-1
0
0
0
0
0
-1
-1
-1
-1
-1
0
0
-1
-1
-1
-1
-1
0
0
0
0
0
0
0
0
-1
0
0
0
0
-1
-1
-1
-1
-1
-1
-1
-1
0
0
0
-1
-1
0
-1
-1
-1
-1
-1
0
0
0
-1
-1
-1
-1
-1
-1
-1
-1
-1
-1
0
0
0
0
-1
-1
-1
0
-1
-1
-1
-1
-1
-1
-1
-1
-1
0
0
0
0
0
0
0
-1
-1
-1
-1
-1
-1
0
-1
-1
-1
-1
-1
-1
-1
-1
0
0
-1
-1
0
-1
-1
-1
0
0
-1
-1
-1
0
0
0
0
0
0
0
0
0
0
0
0
0
0
0
0
0
0
0
0
0
0
0
-1
-1
-1
0
-1
-1
-1
-1
0
0
0
0
0
0
-1
-1
0
0
0
-1
-1
-1
0
-1
-1
-1
-1
-1
-1
-1
0
-1
-1
0
0
0
-1
0
0
0
0
0
0
0
-1
-1
0
0
0
0
0
0
0
0
0
0
0
-1
-1
0
-1
-1
-1
-1
0
0
0
-1
-1
-1
0
0
0
0
0
0
0
0
0
0
-1
-1
-1
-1
-1
0
0
-1
-1
-1
-1
0
0
-1
-1
0
0
0
-1
0
-1
-1
0
0
0
0
0
-1
0
0
-1
-1
0
0
0
-1
0
0
-1
-1
0
0
-1
0
0
0
0
0
0
0
0
0
-1
0
0
-1
-1
-1
-1
-1
-1
-1
0
-1
-1
-1
-1
-1
0
-1
-1
0
0
0
-1
-1
-1
0
0
-1
-1
-1
-1
0
-1
-1
0
0
0
0
0
-1
-1
-1
-1
-1
-1
-1
-1
-1
-1
-1
-1
-1
-1
-1
-1
-1
0
0
0
0
0
0
0
-1
-1
-1
-1
-1
-1
-1
-1
-1
-1
-1
-1
-1
-1
-1
-1
-1
0
0
0
0
0
0
0
0
0
0
0
0
-1
-1
-1
-1
-1
0
-1
-1
0
0
0
0
0
0
0
-1
-1
0
0
-1
-1
-1
-1
-1
0
-1
0
0
-1
-1
-1
0
0
-1
-1
0
0
-1
-1
-1
0
-1
-1
-1
-1
-1
-1
-1
-1
0
0
0
0
0
0
-1
0
0
-1
-1
0
-1
-1
-1
-1
-1
-1
-1
-1
-1
-1
0
0
0
0
0
0
-1
-1
-1
-1
-1
-1
-1
-1
0
0
-1
-1
-1
-1
-1
-1
0
-1
-1
0
-1
-1
-1
0
0
-1
0
0
0
0
0
0
0
0
0
0
0
0
0
-1
0
-1
-1
0
0
0
0
0
0
0
0
-1
0
-1
-1
0
0
0
0
0
-1
-1
-1
0
0
0
0
0
0
-1
0
0
-1
-1
0
0
0
0
0
0
0
-1
-1
-1
0
0
0
0
0
0
0
0
0
0
-1
0
0
0
0
0
0
-1
0
-1
-1
-1
-1
-1
-1
-1
-1
-1
-1
-1
-1
-1
-1
-1
-1
-1
0
0
0
0
0
0
0
0
0
0
0
0
0
0
-1
0
0
0
0
0
-1
-1
-1
-1
-1
0
0
0
0
0
0
0
0
-1
-1
-1
-1
-1
0
-1
-1
-1
-1
-1
0
-1
-1
-1
0
0
-1
-1
-1
-1
-1
-1
0
0
0
0
0
0
0
0
0
0
-1
0
0
0
0
0
0
-1
0
0
-1
0
-1
-1
-1
-1
-1
0
-1
-1
-1
-1
-1
-1
0
-1
-1
-1
0
0
0
0
0
0
-1
-1
-1
-1
-1
-1
-1
-1
-1
-1
0
0
0
0
0
0
0
0
0
0
0
0
0
0
0
0
0
0
-1
-1
-1
-1
-1
-1
-1
0
0
-1
-1
-1
-1
-1
0
0
0
-1
-1
0
0
-1
-1
-1
-1
-1
-1
-1
-1
-1
-1
-1
-1
-1
-1
0
0
-1
-1
-1
0
-1
-1
0
0
0
0
0
-1
0
0
-1
-1
-1
-1
-1
-1
-1
-1
-1
-1
-1
-1
-1
-1
-1
-1
-1
-1
0
0
-1
-1
-1
-1
-1
-1
-1
-1
-1
-1
0
0
0
-1
-1
-1
-1
0
0
0
0
0
0
0
0
-1
0
-1
-1
-1
-1
-1
-1
-1
-1
-1
-1
-1
0
-1
-1
0
0
-1
0
0
0
0
0
0
0
0
0
0
-1
-1
-1
-1
-1
-1
-1
-1
-1
-1
-1
-1
-1
-1
-1
-1
0
0
0
0
0
0
0
0
0
0
-1
0
0
0
0
0
0
0
0
0
0
0
-1
-1
-1
-1
-1
0
0
0
0
-1
-1
0
-1
-1
-1
-1
-1
-1
-1
-1
-1
-1
-1
0
0
0
0
-1
0
0
-1
0
0
0
0
0
0
0
0
0
0
0
0
-1
0
0
0
0
0
0
0
0
0
0
0
0
-1
-1
0
0
-1
-1
-1
0
-1
-1
0
0
-1
-1
-1
0
-1
-1
0
0
0
0
0
0
0
0
0
0
0
0
-1
0
0
0
-1
-1
-1
-1
0
0
0
0
0
-1
-1
-1
-1
-1
-1
-1
0
0
0
-1
0
0
-1
0
0
0
0
0
0
-1
-1
-1
-1
-1
0
-1
-1
0
0
-1
0
0
-1
0
0
-1
0
0
-1
0
0
-1
0
-1
-1
0
0
-1
0
0
-1
-1
0
-1
0
0
0
-1
-1
0
-1
-1
-1
0
0
-1
-1
0
0
-1
-1
0
-1
-1
0
0
0
0
-1
0
0
-1
0
0
0
0
-1
0
0
0
0
0
0
0
0
0
0
0
0
-1
-1
-1
-1
-1
-1
-1
0
0
0
0
-1
-1
-1
-1
0
0
-1
-1
-1
0
-1
0
0
-1
-1
0
-1
0
0
0
-1
-1
-1
-1
0
0
-1
-1
0
0
0
0
-1
-1
0
0
-1
-1
0
-1
-1
0
0
-1
-1
-1
-1
-1
-1
0
0
0
-1
-1
-1
-1
-1
-1
-1
-1
-1
0
-1
-1
0
0
-1
-1
0
0
-1
-1
0
0
-1
-1
-1
0
-1
-1
0
0
0
0
-1
-1
-1
0
-1
-1
-1
0
0
-1
-1
0
0
-1
-1
0
0
-1
0
0
0
-1
-1
0
0
-1
-1
0
-1
-1
0
0
-1
-1
0
0
-1
0
0
0
-1
0
0
0
-1
-1
0
-1
-1
-1
-1
-1
0
-1
-1
-1
0
0
-1
-1
-1
0
0
-1
-1
-1
0
-1
-1
0
-1
-1
-1
-1
-1
0
0
0
0
0
-1
-1
0
0
0
0
0
0
-1
-1
0
-1
-1
-1
-1
0
0
0
0
0
0
-1
0
0
0
-1
-1
0
-1
-1
-1
-1
-1
-1
-1
-1
-1
-1
-1
0
-1
0
0
-1
-1
-1
-1
-1
-1
-1
-1
-1
-1
-1
-1
-1
0
-1
-1
-1
-3
-3
0
-1
-3
-3
-1
-1
-2
-1
-1
0
-1
-1
-1
0
0
-1
0
0
0
0
-1
0
0
0
-1
0
0
-1
-1
-1
0
0
-1
-1
0
-1
-1
-1
0
-1
-1
-1
-1
-1
-1
-1
-1
-1
-1
0
0
0
0
0
0
0
0
0
0
0
0
0
0
0
0
0
0
0
0
0
0
0
0
0
0
0
0
0
0
0
0
0
0
0
0
0
0
0
0
0
0
0
-1
-1
-1
0
0
-1
-1
-1
-1
-1
-1
0
0
-1
-1
-1
-1
-1
-1
0
0
0
-1
0
0
0
0
0
0
0
-1
0
0
0
0
0
0
-1
0
0
-1
0
0
0
-1
-1
-1
-1
-1
-1
-1
-1
-1
-1
-1
-1
0
-1
-1
-1
-1
0
0
0
0
0
-1
0
0
0
0
0
0
0
0
0
0
0
-1
-1
0
0
0
0
0
-1
-1
0
0
0
0
0
0
-1
-1
0
-1
-1
0
0
0
0
-1
-1
-1
0
0
0
0
0
-1
-1
-1
-1
-1
-1
0
0
0
-1
-1
-1
0
0
0
0
0
0
0
0
0
0
0
0
0
-1
0
0
0
0
0
0
-1
-1
-1
-1
0
0
-1
0
-1
-1
-1
-1
0
0
-1
-1
-1
-1
-1
0
0
0
-1
-1
-1
0
-1
-1
-1
0
0
0
0
0
0
-1
-1
-1
-1
0
0
0
0
0
0
-1
-1
-1
-1
-1
0
0
0
-1
-1
0
0
-1
-1
-1
0
-1
-1
-1
-1
-1
-1
-1
0
0
-1
-1
-1
-1
-1
-1
0
0
0
-1
-1
0
0
0
0
0
0
-1
-1
-1
0
0
-1
-1
-1
0
0
-1
-1
-1
0
0
0
0
0
0
-1
-1
0
0
0
0
0
0
0
-1
-1
-1
-1
-1
0
0
-1
-1
0
0
0
0
0
0
0
0
0
0
0
-1
-1
-1
0
0
0
0
0
0
-1
-1
-1
0
0
0
0
0
0
-1
-1
0
0
0
0
-1
-1
0
0
0
0
0
0
0
0
0
0
0
0
0
0
0
0
0
0
0
0
0
0
0
0
0
0
0
0
0
0
0
0
0
0
0
0
0
0
0
0
0
-1
0
0
0
0
0
0
0
-1
0
0
0
0
0
0
0
0
0
0
0
0
0
0
0
0
0
0
0
0
0
0
0
0
0
0
0
0
0
0
0
0
0
0
0
0
0
0
0
0
0
0
0
0
0
0
0
0
0
0
0
0
0
0
0
0
0
0
0
0
0
0
0
0
0
0
0
0
0
0
0
0
0
0
0
0
0
0
0
0
0
0
0
0
0
0
0
0
0
0
0
0
0
0
0
0
0
0
0
0
0
0
0
0
0
0
0
0
0
0
0
0
0
0
0
0
0
0
0
0
0
0
0
0
0
0
0
0
0
0
0
0
0
0
0
0
0
0
0
0
0
0
0
0
0
0
0
0
0
0
0
0
0
0
0
0
0
0
0
0
0
0
0
0
0
0
0
0
0
0
0
0
0
0
0
0
-1
-1
-1
-1
-1
-1
-1
-1
-1
-1
-1
-1
-1
-1
-1
-1
-1
-1
-1
-1
-1
-1
-1
-1
-1
-1
-1
-1
-1
-1
-1
-1
-1
-1
-1
-1
-1
-1
-1
-1
-1
-1
-1
-1
-1
-1
-1
-1
-1
-1
-1
-1
-1
-1
-1
-1
-1
-1
-2
-2
-2
-2
-2
-2
-2
-1
-1
-2
-1
-1
-2
-2
-2
-2
-2
-2
-2
-2
-2
-2
-1
-1
-1
-1
-1
-1
-1
-1
-1
-1
-1
-1
-1
-1
-1
-1
-1
-1
-1
-1
-1
-1
-1
-1
-1
-1
-1
-1
-1
-1
-1
-1
-1
-1
-1
-1
-1
-1
-1
-1
-1
-1
-1
-1
-1
-1
-1
-1
-1
-1
-1
0
0
0
0
0
0
0
0
-1
0
0
0
0
0
0
0
0
0
0
0
-1
-1
-1
0
0
0
-1
-1
-1
-1
-1
-1
-1
-1
-1
-1
-1
-1
-1
-1
-1
-1
-1
-1
-1
-1
-1
-1
-1
0
-1
0
0
0
0
-1
0
0
0
0
0
0
0
0
0
0
0
0
0
0
0
0
0
0
-1
0
0
0
0
0
0
0
-1
-1
-1
0
-1
-1
-1
-1
-1
-1
-1
-1
-1
-1
-1
-1
-1
-1
-1
-1
0
0
-1
0
0
0
0
0
0
0
0
0
0
0
0
0
0
0
0
0
0
0
0
0
0
0
0
0
0
0
-1
0
0
0
0
0
0
0
0
0
0
0
0
0
0
0
0
0
0
0
0
0
0
0
0
0
0
0
0
0
0
0
0
0
0
0
0
0
0
0
0
0
0
0
0
0
0
0
0
0
0
0
0
0
0
0
0
0
0
0
0
0
0
0
0
0
0
0
0
0
0
0
-1
0
0
0
0
-1
0
0
0
-1
0
0
0
0
0
0
0
0
0
0
0
0
0
0
0
0
0
0
0
0
0
0
0
0
-1
-1
0
0
0
0
-1
0
0
0
0
0
0
0
0
0
0
-1
-1
-1
0
0
-1
-1
-1
-1
-1
-1
-1
-1
-1
-1
-1
-1
-1
0
0
0
0
0
0
0
0
0
0
0
0
0
0
0
0
-1
0
0
-1
0
0
-1
0
0
-1
-1
0
0
-1
-1
-1
0
-1
-1
-1
0
-1
-1
0
0
-1
-1
-1
-1
-1
-1
-1
-1
-1
-1
-1
-1
-1
-1
-1
-1
0
0
-1
0
0
-1
0
0
0
0
0
0
0
0
0
0
-1
-1
-1
0
0
-1
-1
-1
0
0
-1
-1
-1
-1
-1
-1
-1
-1
-1
-1
-1
-1
-1
-1
-1
-1
-1
0
0
0
-1
-1
0
0
0
0
0
-1
-1
0
0
0
-1
0
0
0
0
0
0
0
0
0
0
0
0
0
0
-1
-1
0
0
0
0
0
-1
0
0
0
0
0
-1
0
0
0
-1
-1
0
0
0
0
-1
-1
-1
-1
-1
0
-1
0
0
-1
0
-1
-1
0
-1
0
0
-1
0
-1
-1
0
-1
-1
0
-1
0
0
-1
0
-1
-1
0
-1
0
-1
0
0
0
0
0
0
0
0
0
-1
0
0
-1
-1
0
-1
0
0
-1
0
-1
-1
0
-1
-1
0
0
-1
0
0
0
-1
-1
0
0
0
0
0
0
0
0
0
0
0
0
0
0
0
-1
0
0
0
-1
0
-1
-1
0
-1
-1
0
-1
-1
0
0
0
-1
0
0
0
0
0
0
0
0
0
-1
-1
0
0
0
0
0
0
0
0
0
0
0
0
-1
-1
0
0
-1
-1
0
0
0
0
0
0
0
0
0
-1
0
0
0
0
-1
-1
0
0
0
0
-1
0
0
-1
-1
0
-1
-1
0
-1
0
0
0
0
0
0
0
0
0
-1
0
0
0
0
0
-1
-1
-1
0
-1
-1
-1
0
-1
-1
-1
-1
0
0
0
0
-1
0
0
0
0
0
-1
-1
-1
-1
-1
0
0
0
0
0
0
-1
0
-1
-1
0
0
0
0
-1
-1
-1
-1
0
0
-1
0
0
-1
-1
0
0
0
0
0
-1
-1
0
0
-1
-1
-1
-1
-1
-1
-1
0
0
-1
-1
0
0
0
0
0
0
0
0
0
-1
0
0
0
0
0
0
0
-1
0
-1
0
0
0
-1
0
-1
-1
0
0
-1
0
0
0
-1
-1
0
0
0
0
0
-1
-1
-1
-1
-1
-1
-1
0
0
-1
-1
-1
-1
-1
-1
-1
-1
-1
-1
-1
-1
-1
-1
-1
-1
-1
-1
0
-1
-1
-1
-1
-1
-1
-1
-1
-1
-1
-1
-1
-1
-1
-1
-1
-1
-1
-1
-1
-1
-1
-1
-1
-1
-1
-1
-1
-1
-1
-1
-1
-1
-1
-1
-1
-1
-1
-1
0
-1
-1
-1
0
0
-1
-1
0
0
-1
-1
0
0
0
0
-1
-1
-1
-1
-1
-1
-1
-1
0
0
0
-1
-1
0
0
0
0
0
-1
-1
0
0
0
-1
0
0
0
0
0
0
0
0
0
0
0
0
0
-1
-1
0
0
0
-1
0
0
0
0
0
0
0
0
0
0
0
0
0
0
0
0
0
0
-1
-1
0
0
0
0
-1
-1
0
0
0
0
0
0
0
0
0
0
0
0
0
0
-1
-1
-1
-1
0
0
0
0
0
0
-1
-1
-1
0
0
0
-1
0
0
0
-1
0
0
0
-1
0
0
0
0
0
0
-1
0
0
0
0
-1
0
0
0
0
0
0
0
0
0
0
0
0
0
0
0
0
0
0
0
0
0
0
0
0
0
0
0
-1
0
0
-1
0
0
0
0
0
0
0
0
0
0
-1
-1
0
0
0
0
0
0
0
-1
0
0
0
0
0
0
0
0
0
0
0
0
0
0
0
0
0
0
0
0
0
0
0
0
0
0
0
0
0
0
0
0
0
0
0
0
0
0
0
0
0
0
0
0
0
0
0
0
0
0
0
0
0
0
0
0
0
0
0
0
0
0
0
0
0
0
0
0
0
0
0
0
0
0
0
0
0
0
0
0
0
0
-1
-1
0
0
-1
0
-1
0
0
0
-1
-1
-1
0
0
-1
0
0
0
0
0
0
0
0
0
0
0
0
0
0
0
0
0
0
0
-1
0
0
0
0
0
0
0
0
0
0
0
0
0
0
0
0
0
0
0
0
-1
-1
0
0
0
0
0
0
0
-1
-1
0
0
0
0
0
0
0
0
0
0
0
0
0
0
0
-1
0
0
-1
-1
-1
-1
-1
-1
-1
-1
-1
0
0
-1
-1
-1
0
0
0
-1
0
0
0
0
-1
-1
-1
0
0
-1
-1
-1
-1
-1
0
0
0
0
-1
-1
0
0
0
0
-1
-1
0
0
0
-1
-1
-1
-1
-1
-1
-1
-1
-1
-1
-1
-1
-1
-1
0
0
0
-1
-1
-1
-1
-1
-1
-1
0
0
-1
0
0
-1
0
0
0
0
-1
-1
-1
-1
-1
-1
-1
-1
-1
0
0
0
-1
-1
-1
-1
-1
-1
-1
-1
-1
-1
-1
-1
-1
-1
0
0
0
-1
-1
-1
-1
-1
0
0
0
0
-1
-1
-1
-1
-1
-1
-1
-1
-1
0
0
0
0
0
0
0
-1
0
0
-1
0
0
0
0
0
-1
0
0
0
0
0
0
-1
-1
-1
-1
-1
-1
-1
-1
-1
-1
-1
0
0
0
0
0
0
0
-1
-1
-1
0
0
-1
-1
-1
-1
0
0
-1
0
0
0
0
0
-1
-1
0
0
-1
-1
-1
-1
-1
-1
-1
-1
-1
-1
-1
-1
-1
0
0
0
0
0
-1
-1
-1
0
0
0
-1
0
0
-1
-1
-1
-1
-1
-1
-1
-1
-1
-1
-1
-1
-1
-1
-1
-1
-1
-1
0
-1
-1
-1
-1
-1
-1
-1
-1
-1
-1
-1
-1
-1
-1
-1
0
-1
-1
0
-1
-1
-1
-1
-1
-1
0
0
0
0
0
0
0
0
-1
-1
0
0
0
0
0
0
-1
-1
0
0
-1
-1
0
-1
-1
0
0
0
-1
0
0
-1
-1
0
-1
-1
-1
-1
0
-1
-1
-1
-1
-1
-1
-1
0
0
0
0
0
-1
-1
-1
-1
0
0
0
0
-1
-1
0
0
-1
-1
0
0
-1
-1
-1
0
0
0
0
0
0
0
0
0
-1
0
0
0
-1
-1
0
0
0
0
-1
-1
-1
-1
-1
-1
-1
-1
0
-1
-1
-1
-1
0
0
0
0
0
0
0
0
0
0
0
0
0
0
0
-1
0
0
0
0
0
0
-1
0
0
0
0
0
0
0
0
0
0
0
0
0
-1
0
0
0
0
-1
-1
0
-1
0
0
-1
0
0
0
-1
0
-1
-1
0
0
0
0
0
0
0
0
-1
-1
0
0
0
0
0
0
0
-1
-1
-1
0
0
-1
0
-1
-1
0
0
-1
-1
-1
-1
-1
0
-1
-1
-1
-1
0
-1
-1
0
0
-1
0
0
-1
-1
0
0
-1
0
0
0
-1
0
0
0
-1
-1
0
0
0
0
0
-1
-1
0
0
-1
0
0
-1
-1
-1
-1
0
0
-1
-1
0
0
0
0
0
0
0
0
0
0
0
0
0
0
0
0
0
0
0
-1
-1
-1
-1
0
0
-1
0
0
0
0
-1
0
0
0
0
0
0
0
0
0
0
0
0
0
0
0
-1
0
0
0
0
0
0
0
0
0
0
0
0
0
0
0
0
0
0
-1
-1
-1
0
0
0
0
0
0
0
0
-1
0
0
0
0
0
0
0
0
0
0
0
0
0
0
-1
-1
-1
-1
-1
-1
0
0
0
0
-1
-1
-1
-1
0
0
0
0
0
0
-1
0
0
-1
-1
-1
-1
-1
-1
-1
-1
-1
-1
-1
-1
-1
-1
0
0
0
0
0
-1
-1
-1
-1
-1
0
0
-1
-1
0
-1
0
0
0
0
0
0
0
0
-1
-1
-1
0
0
0
0
-1
-1
0
0
0
0
0
0
0
-1
0
-1
-1
0
0
-1
-1
0
-1
-1
-1
-1
-1
-1
-1
0
0
0
-1
-1
-1
-1
-1
-1
-1
-1
-1
-1
-1
-1
-1
-1
-1
-1
0
0
0
0
0
0
0
-1
-1
-1
-1
0
0
0
0
0
-1
-1
-1
-1
-1
0
-1
-1
-1
-1
-1
-1
-1
-1
-1
0
-1
-1
0
0
-1
-1
0
-1
-1
-1
-1
0
0
0
-1
-1
-1
-1
-1
-1
-1
-1
-1
-1
-1
0
-1
-1
-1
-1
-1
-1
0
0
-1
-1
-1
-1
-1
-1
0
0
-1
-1
0
0
-1
-1
0
0
-1
-1
-1
-1
0
-1
-1
-1
-1
-1
-1
-1
-1
0
0
0
0
-1
-1
-1
0
-1
-1
0
0
0
0
0
-1
0
0
-1
-1
-1
-1
0
0
-1
0
0
-1
-1
0
0
0
0
0
0
0
0
0
0
-1
-1
-1
0
0
0
-1
-1
0
0
-1
-1
-1
-1
-1
-1
0
-1
-1
0
0
-1
-1
0
-1
-1
-1
0
-1
-1
-1
-1
-1
0
0
-1
0
0
0
0
0
0
0
0
-1
-1
-1
0
-1
0
0
0
0
0
-1
-1
-1
-1
-1
0
0
0
0
0
0
0
0
0
0
0
0
0
0
0
0
0
0
0
0
0
0
0
-1
0
0
0
0
0
0
0
0
0
0
0
0
0
0
0
0
0
0
0
0
0
0
0
-1
-1
0
0
0
0
0
-1
0
0
-1
-1
-1
0
0
0
-1
-1
0
0
-1
0
-1
-1
-1
0
0
-1
-1
-1
-1
0
0
-1
-1
-1
0
0
-1
-1
-1
0
0
-1
-1
-1
-1
-1
0
0
0
-1
0
0
0
0
0
0
0
0
0
0
0
-1
-1
0
-1
-1
-1
-1
-1
-1
-1
-1
-1
-1
0
0
-1
-1
-1
-1
-1
-1
-1
0
-1
-1
-1
-1
0
0
-1
-1
-1
-1
-1
-1
0
0
-1
-1
-1
-1
-1
-1
-1
0
0
-1
0
0
0
-1
0
0
0
0
0
0
0
0
0
0
0
0
0
0
-1
-1
-1
0
-1
0
0
0
0
0
-1
-1
0
0
0
0
0
0
0
0
0
0
0
0
0
0
0
-1
-1
0
0
0
-1
0
0
0
0
0
0
-1
-1
0
0
0
0
0
0
0
0
0
-1
-1
0
0
0
0
0
0
0
0
0
-1
-1
-1
0
0
0
0
0
0
0
0
0
0
0
0
0
0
0
0
0
0
0
-1
-1
0
0
-1
0
0
0
-1
-1
-1
-1
-1
0
0
-1
-1
0
0
0
-1
0
0
0
0
0
0
0
0
0
0
0
0
0
0
0
0
0
0
0
-1
0
0
0
0
0
0
0
0
0
0
0
-1
-1
-1
-1
-1
0
0
-1
-1
-1
-1
-1
-1
-1
-1
-1
-1
0
-1
-1
-1
-1
-1
-1
0
0
0
0
-1
-1
-1
-1
-1
0
0
0
0
0
0
0
0
0
-1
-1
0
0
0
-1
-1
-1
0
0
0
-1
-1
-1
-1
0
-1
-1
0
-1
-1
-1
-1
-1
-1
0
0
0
0
0
0
0
-1
-1
0
0
0
-1
-1
-1
-1
-1
0
-1
-1
0
0
0
-1
0
0
-1
-1
-1
-1
-1
0
-1
-1
-1
0
0
0
-1
-1
0
0
-1
0
0
0
0
0
0
-1
0
0
0
0
0
0
0
0
-1
-1
0
0
-1
0
0
0
0
0
0
-1
0
0
0
-1
-1
-1
0
-1
-1
-1
0
0
0
0
-1
-1
-1
0
0
-1
-1
0
0
0
0
0
0
0
0
0
0
0
0
0
-1
-1
-1
0
0
-1
-1
-1
0
0
-1
-1
-1
0
0
0
-1
-1
-1
0
-1
-1
-1
0
0
-1
-1
-1
-1
0
0
0
0
0
0
0
0
0
0
0
-1
-1
-1
-1
-1
-1
-1
-1
-1
0
0
-1
-1
-1
0
0
0
-1
-1
-1
-1
-1
-1
-1
-1
-1
0
0
0
0
0
0
0
0
-1
-1
0
0
-1
-1
-1
0
-1
-1
-1
-1
0
0
0
0
0
0
-1
-1
0
0
-1
-1
-1
0
0
0
-1
-1
-1
0
0
0
0
0
0
0
0
0
-1
0
0
0
-1
-1
0
0
0
0
0
0
0
0
0
0
-1
0
0
0
-1
0
0
0
0
0
-1
-1
-1
-1
0
0
0
0
0
0
-1
-1
0
-1
-1
-1
-1
-1
-1
-1
-1
-1
-1
0
0
0
0
0
-1
0
0
-1
0
0
-1
0
0
-1
-1
0
0
0
0
0
0
-1
-1
-1
-1
0
-1
-1
-1
-1
-1
0
0
-1
0
0
0
-1
-1
-1
-1
0
0
0
0
0
-1
-1
-1
-1
-1
-1
-1
-1
0
0
-1
-1
0
0
-1
-1
0
0
0
0
-1
-1
-1
-1
0
0
0
0
0
0
0
0
-1
0
0
0
0
0
0
-1
-1
0
0
-1
-1
-1
-1
0
0
-1
-1
-1
0
-1
-1
-1
-1
-1
-1
-1
-1
-1
-1
0
-1
-1
0
-1
0
0
0
0
0
-1
-1
-1
-1
0
0
-1
0
0
0
-1
-1
-1
-1
-1
0
0
0
0
0
0
-1
0
0
0
0
0
0
-1
0
-1
-1
-1
0
-1
-1
-1
0
0
0
0
0
0
0
0
0
0
0
0
0
0
0
0
0
0
0
0
0
0
0
-1
-1
0
0
0
0
0
0
0
0
0
0
-1
-1
-1
-1
-1
-1
-1
-1
-1
-1
-1
-1
-1
0
0
0
0
0
0
0
-1
-1
0
0
-1
0
0
0
-1
-1
0
0
-1
0
0
0
0
0
2
4
0
-1
5
10
9
9
9
8
9
13
11
4
8
14
9
1
-2
-4
-8
-10
-11
-10
-9
-10
-12
-13
-12
-12
-14
-14
-11
-6
-3
-2
-2
-1
-2
-3
-5
-5
-3
0
2
1
1
2
1
-1
-4
-4
-3
-2
-2
-3
-3
-2
-2
-5
-8
-9
-7
-6
-6
-6
-3
-3
-4
-6
-5
-4
-3
-2
-1
0
2
3
2
0
1
3
3
2
4
5
6
5
5
3
2
2
2
1
2
3
3
1
0
0
-1
-2
-2
-1
0
0
1
1
0
1
2
1
1
3
5
4
5
5
4
3
3
2
2
2
3
3
1
0
0
-1
-1
-1
-1
-1
-2
-2
-3
-3
-2
-3
-4
-4
-3
-3
-4
-4
-4
-5
-7
-7
-7
-7
-6
-5
-5
-6
-7
-7
-8
-7
-6
-6
-6
-7
-7
-7
-7
-7
-8
-9
-9
-8
-7
-5
-5
-5
-6
-8
-8
-6
-3
0
2
1
0
0
0
0
4
11
18
24
29
33
34
30
23
19
22
28
33
32
29
23
14
4
-2
-1
3
2
-1
-5
-7
-8
-10
-12
-13
-9
-6
-5
-2
3
6
4
0
1
4
8
11
12
12
11
7
3
2
4
6
4
1
-1
-3
-5
-9
-11
-12
-12
-12
-13
-13
-12
-14
-18
-20
-19
-16
-13
-11
-10
-11
-13
-15
-15
-14
-12
-11
-11
-12
-12
-12
-13
-15
-16
-14
-12
-11
-12
-13
-15
-19
-22
-22
-22
-23
-24
-22
-17
-11
-7
-8
-9
-7
-4
1
9
25
45
62
66
54
38
29
31
41
51
54
48
35
19
4
-6
-13
-16
-19
-21
-22
-23
-25
-29
-36
-42
-42
-34
-21
-6
5
8
7
7
10
19
33
49
62
66
59
44
31
26
26
27
25
21
12
-1
-15
-25
-32
-35
-34
-29
-23
-18
-17
-21
-25
-24
-17
-6
6
16
19
16
12
9
9
11
14
16
16
12
5
-3
-10
-16
-20
-20
-20
-21
-24
-28
-34
-39
-41
-39
-35
-31
-27
-25
-25
-25
-23
-19
-13
-9
-7
-5
-4
-4
-7
-11
-14
-19
-21
-17
-4
8
10
2
-8
-10
2
25
52
68
64
41
21
18
33
47
50
44
32
20
10
4
-1
-7
-16
-25
-27
-20
-14
-14
-21
-30
-37
-36
-26
-8
7
13
9
3
3
9
17
24
29
33
37
44
52
51
36
14
3
5
13
20
20
10
-10
-29
-36
-30
-16
-8
-9
-14
-16
-14
-11
-7
-3
0
3
9
16
22
20
10
0
-2
3
10
14
12
3
-9
-19
-22
-19
-15
-14
-18
-23
-27
-30
-32
-31
-31
-31
-28
-25
-21
-18
-18
-22
-27
-24
-15
-6
-2
-1
-3
-11
-18
-21
-21
-19
-20
-22
-21
-14
-8
-8
-10
-10
-5
9
32
60
76
70
47
27
27
42
59
66
61
46
26
8
-2
-6
-11
-18
-24
-26
-25
-26
-31
-38
-45
-47
-42
-27
-7
8
11
6
1
2
9
21
34
43
45
40
32
29
32
38
43
40
27
13
2
-3
-6
-9
-11
-15
-19
-21
-22
-23
-25
-24
-21
-13
-2
6
10
8
5
5
9
16
22
23
20
14
8
3
1
-1
-3
-5
-8
-12
-16
-20
-25
-29
-31
-30
-27
-24
-23
-26
-29
-30
-30
-27
-21
-16
-13
-14
-19
-19
-14
-10
-10
-7
-3
-6
-16
-23
-25
-25
-26
-25
-20
-14
-11
-14
-16
-12
-4
6
25
53
77
79
59
36
29
40
58
69
69
55
33
10
-2
-7
-12
-20
-25
-25
-26
-30
-37
-44
-48
-50
-45
-31
-10
6
10
6
2
4
11
24
39
48
49
43
35
30
26
26
31
40
41
27
9
-4
-14
-21
-20
-13
-8
-10
-17
-25
-30
-29
-25
-16
-3
9
13
11
8
6
7
10
17
24
28
25
15
6
-1
-6
-9
-7
-4
-6
-13
-22
-30
-35
-36
-34
-29
-25
-23
-25
-27
-28
-28
-28
-24
-16
-9
-6
-9
-13
-17
-16
-13
-8
-3
-2
-7
-17
-25
-29
-33
-33
-27
-19
-14
-14
-15
-16
-14
-7
11
39
67
80
70
49
35
38
54
69
74
63
43
24
9
-1
-9
-19
-25
-29
-28
-30
-35
-42
-49
-54
-51
-39
-20
-2
8
8
4
3
10
23
37
47
50
47
41
35
30
26
26
32
37
35
22
5
-10
-21
-26
-22
-12
-7
-11
-21
-28
-30
-29
-21
-9
4
12
14
11
9
9
11
14
20
26
27
22
12
2
-6
-10
-10
-7
-6
-11
-20
-29
-34
-36
-37
-33
-26
-22
-22
-23
-25
-25
-25
-22
-16
-9
-4
-4
-8
-14
-17
-15
-12
-9
-6
-6
-12
-21
-26
-30
-33
-32
-26
-20
-17
-17
-20
-20
-15
-5
12
39
66
80
73
55
38
38
53
70
77
68
48
25
8
-2
-11
-21
-27
-30
-30
-31
-36
-45
-54
-58
-52
-38
-19
0
9
9
5
5
12
26
41
51
53
50
43
35
29
24
22
25
31
30
17
0
-13
-20
-25
-23
-17
-12
-12
-17
-23
-25
-22
-17
-9
4
14
17
15
12
10
11
15
20
24
24
18
8
-1
-7
-11
-14
-13
-11
-15
-21
-29
-35
-37
-35
-30
-25
-20
-19
-21
-24
-24
-21
-15
-8
-3
-2
-2
-5
-10
-12
-11
-9
-7
-6
-7
-11
-19
-28
-34
-38
-39
-36
-30
-24
-22
-24
-25
-24
-16
-2
21
50
77
90
79
55
38
41
62
83
89
72
44
17
-1
-9
-16
-25
-34
-37
-36
-38
-44
-55
-63
-63
-54
-35
-13
6
14
12
8
9
19
35
51
61
61
54
45
36
28
22
20
22
26
25
13
-8
-25
-34
-35
-29
-18
-10
-11
-18
-26
-29
-23
-10
4
17
25
25
19
15
14
16
19
23
26
24
16
5
-7
-15
-19
-19
-15
-11
-14
-23
-34
-39
-38
-33
-25
-18
-15
-16
-18
-21
-21
-17
-13
-7
-1
3
2
-5
-14
-18
-16
-10
-6
-4
-5
-12
-23
-31
-36
-38
-37
-33
-27
-23
-23
-28
-29
-25
-16
-5
8
29
53
78
89
81
58
38
40
61
84
90
71
36
5
-12
-18
-21
-26
-32
-38
-42
-45
-50
-55
-59
-58
-46
-27
-6
11
19
18
14
14
24
41
57
64
61
51
40
30
23
17
15
19
21
14
-1
-16
-27
-34
-36
-29
-17
-10
-12
-16
-19
-19
-15
-5
10
24
30
28
22
17
14
15
19
23
24
19
9
-2
-12
-19
-24
-23
-18
-16
-19
-26
-32
-36
-36
-31
-21
-13
-9
-10
-10
-13
-15
-15
-10
-5
-1
1
0
-7
-14
-16
-16
-18
-16
-11
-7
-11
-22
-32
-38
-38
-36
-32
-27
-24
-24
-26
-22
-16
-11
-4
6
22
44
70
90
93
75
48
32
41
66
83
76
49
15
-12
-25
-28
-29
-34
-40
-45
-45
-44
-47
-51
-53
-48
-34
-13
10
26
31
27
21
22
32
47
60
63
57
45
31
19
12
7
6
8
10
4
-11
-25
-33
-36
-34
-26
-13
-4
-3
-8
-12
-11
-4
6
19
30
33
28
21
16
13
13
14
15
14
10
2
-9
-18
-24
-26
-25
-20
-16
-18
-23
-27
-29
-28
-23
-16
-9
-6
-6
-9
-11
-12
-12
-10
-7
-4
-3
-4
-8
-14
-19
-19
-17
-14
-12
-13
-20
-25
-26
-28
-33
-37
-35
-31
-26
-23
-19
-14
-11
-10
-6
6
25
47
73
93
92
71
44
31
42
63
74
65
41
13
-11
-25
-31
-35
-42
-46
-45
-39
-37
-41
-48
-50
-45
-31
-9
14
32
35
30
25
26
33
45
55
59
54
43
29
16
6
-1
-1
6
11
4
-13
-28
-36
-37
-33
-21
-8
-1
-1
-5
-7
-4
1
6
17
30
36
32
24
16
9
5
5
9
12
9
-1
-13
-23
-28
-31
-27
-20
-15
-16
-20
-24
-26
-25
-22
-15
-9
-4
-3
-4
-7
-11
-14
-14
-11
-5
-2
-3
-8
-16
-21
-21
-19
-16
-13
-12
-15
-22
-28
-34
-39
-42
-37
-26
-17
-12
-13
-15
-16
-13
-4
12
34
58
82
95
91
67
38
27
39
61
74
63
36
5
-18
-32
-39
-43
-46
-46
-41
-35
-34
-40
-47
-49
-41
-24
1
24
39
42
36
28
27
33
44
54
57
51
39
25
10
-3
-11
-11
-6
-2
-3
-10
-20
-28
-35
-34
-24
-7
6
11
10
5
2
2
9
20
30
34
31
23
15
8
1
-3
-4
-2
0
-2
-8
-18
-29
-34
-32
-24
-15
-10
-10
-14
-18
-20
-18
-13
-7
-2
0
-1
-3
-8
-13
-17
-17
-14
-8
-4
-5
-10
-17
-25
-29
-21
-12
-10
-13
-19
-25
-34
-38
-38
-35
-28
-23
-18
-14
-11
-10
-11
-7
2
17
38
66
90
96
84
54
28
28
45
64
68
52
22
-8
-26
-33
-38
-44
-49
-48
-41
-34
-33
-37
-43
-44
-36
-19
8
32
45
45
37
30
29
37
46
51
50
42
31
19
8
-5
-16
-18
-9
2
1
-12
-28
-36
-35
-29
-16
0
11
10
6
6
9
11
13
18
26
32
31
24
16
6
-4
-9
-7
-1
1
-5
-14
-24
-30
-31
-29
-21
-14
-11
-11
-12
-13
-14
-16
-15
-9
-2
2
3
-1
-8
-14
-17
-16
-10
-6
-6
-7
-11
-18
-25
-27
-23
-19
-16
-16
-18
-22
-26
-31
-34
-35
-32
-26
-18
-10
-7
-6
-5
-3
3
14
30
53
75
90
87
67
43
29
32
45
53
48
28
5
-14
-27
-36
-44
-49
-49
-43
-34
-28
-27
-31
-34
-32
-21
-2
20
37
45
44
37
33
33
36
39
40
37
31
23
12
0
-10
-15
-15
-14
-13
-11
-13
-19
-24
-24
-19
-10
-1
8
14
16
13
12
14
18
22
23
24
23
19
12
4
-3
-8
-11
-10
-9
-9
-14
-21
-26
-26
-23
-19
-14
-9
-6
-6
-8
-8
-9
-9
-8
-4
0
0
-4
-8
-12
-16
-18
-17
-15
-15
-15
-15
-16
-17
-19
-20
-22
-22
-19
-17
-16
-18
-23
-30
-35
-34
-27
-18
-12
-8
-6
-4
-1
4
13
25
42
66
88
93
75
48
30
30
41
48
44
30
11
-6
-21
-32
-42
-51
-53
-47
-35
-26
-23
-26
-30
-30
-23
-8
14
33
44
45
41
37
35
35
34
34
33
29
24
15
3
-9
-16
-17
-16
-14
-13
-13
-16
-20
-20
-17
-10
-3
5
12
17
18
17
16
16
17
19
20
20
18
13
6
-1
-7
-11
-12
-11
-11
-13
-17
-20
-22
-22
-20
-16
-12
-9
-6
-4
-5
-7
-9
-9
-6
-3
0
-1
-4
-9
-12
-15
-16
-18
-17
-16
-16
-17
-17
-18
-21
-23
-20
-16
-16
-17
-18
-19
-23
-27
-28
-26
-21
-16
-12
-8
-6
-6
-5
-1
7
21
40
61
78
82
70
48
32
30
37
45
44
34
16
-2
-16
-28
-38
-45
-47
-43
-34
-26
-23
-25
-28
-30
-24
-9
11
28
38
40
38
35
34
33
32
31
30
28
23
16
8
0
-6
-12
-14
-13
-12
-13
-16
-17
-17
-16
-13
-7
0
7
10
13
15
16
17
17
19
20
20
17
14
10
4
-3
-8
-10
-10
-11
-14
-16
-19
-21
-21
-20
-16
-12
-10
-8
-7
-6
-7
-7
-7
-5
-4
-4
-5
-7
-10
-14
-16
-16
-15
-14
-14
-14
-15
-18
-21
-20
-17
-16
-18
-18
-17
-17
-21
-25
-29
-30
-25
-20
-15
-10
-7
-6
-6
-2
4
12
24
37
51
67
76
71
55
38
29
31
38
40
31
15
-1
-15
-26
-33
-40
-44
-43
-37
-30
-24
-22
-23
-24
-20
-9
5
21
33
38
38
36
35
33
31
28
25
21
19
14
6
-1
-4
-6
-9
-10
-9
-9
-12
-15
-14
-10
-7
-5
0
6
9
10
11
14
15
14
15
17
17
14
10
6
3
0
-4
-7
-8
-9
-13
-16
-17
-17
-17
-17
-14
-12
-12
-11
-10
-9
-8
-8
-8
-7
-5
-5
-6
-7
-9
-11
-13
-14
-14
-13
-12
-16
-20
-21
-20
-19
-17
-14
-14
-17
-19
-19
-21
-23
-26
-27
-25
-23
-20
-13
-7
-5
-5
-2
3
10
20
32
44
57
68
70
62
48
35
30
33
37
33
20
7
-5
-17
-27
-35
-42
-43
-39
-33
-26
-21
-21
-22
-20
-12
-1
12
24
32
35
35
35
34
32
28
24
21
19
16
11
5
0
-4
-5
-4
-6
-12
-16
-15
-12
-10
-7
-4
-2
0
3
7
11
12
11
13
16
18
18
16
12
8
5
3
0
-2
-6
-10
-13
-13
-14
-17
-19
-19
-17
-15
-13
-12
-11
-11
-11
-9
-7
-5
-5
-6
-8
-8
-9
-10
-11
-12
-13
-15
-18
-18
-17
-17
-18
-18
-17
-15
-15
-16
-16
-15
-18
-24
-29
-30
-27
-22
-16
-11
-8
-8
-9
-5
2
12
22
32
44
56
66
69
63
48
35
30
33
37
34
22
6
-7
-18
-27
-34
-40
-41
-39
-33
-26
-22
-22
-23
-22
-15
-2
12
24
32
34
33
33
33
32
30
26
23
20
18
13
8
3
-2
-7
-9
-9
-10
-12
-12
-12
-11
-10
-8
-4
-1
3
6
9
12
13
14
15
16
16
15
13
10
8
5
1
-3
-6
-8
-11
-13
-14
-15
-17
-18
-17
-16
-16
-14
-12
-10
-9
-9
-8
-7
-6
-6
-6
-6
-7
-8
-10
-11
-12
-14
-15
-15
-15
-17
-19
-20
-20
-21
-22
-21
-21
-21
-25
-29
-31
-33
-32
-26
-16
-8
-4
-3
0
4
12
22
33
45
58
69
73
68
54
39
32
33
36
32
22
9
-4
-16
-27
-37
-44
-45
-42
-36
-28
-24
-23
-24
-23
-17
-6
8
22
32
37
38
38
37
34
30
26
25
24
22
16
7
-4
-11
-12
-10
-11
-14
-14
-12
-12
-13
-12
-9
-7
-3
3
12
16
15
12
12
14
16
17
17
16
12
8
6
2
-3
-8
-11
-10
-8
-9
-13
-15
-17
-18
-18
-14
-11
-10
-9
-8
-6
-6
-7
-8
-8
-6
-5
-4
-4
-7
-11
-16
-17
-17
-15
-14
-14
-16
-18
-21
-24
-24
-22
-19
-18
-20
-24
-28
-32
-34
-33
-28
-21
-12
-5
-3
-1
2
8
18
29
44
62
76
80
68
50
37
36
41
42
35
23
11
1
-10
-23
-38
-48
-50
-43
-34
-28
-26
-29
-31
-30
-24
-11
5
18
27
33
37
39
38
34
30
29
30
33
32
25
13
-1
-13
-16
-12
-6
-5
-11
-15
-16
-18
-18
-16
-11
-6
-1
8
14
16
11
7
8
13
18
20
21
18
12
7
2
-2
-4
-7
-7
-6
-5
-8
-14
-19
-20
-20
-17
-12
-7
-7
-10
-11
-11
-10
-9
-9
-7
-3
-2
-3
-5
-8
-13
-17
-16
-12
-10
-11
-12
-14
-19
-22
-22
-20
-19
-20
-20
-20
-22
-28
-34
-36
-36
-31
-21
-12
-7
-8
-7
-2
6
18
31
48
66
78
76
62
48
43
45
47
44
38
28
17
6
-9
-26
-40
-47
-46
-39
-33
-31
-32
-35
-39
-38
-29
-14
0
12
22
28
33
35
34
31
31
34
39
42
40
32
18
6
-1
-2
-1
-2
-6
-11
-14
-16
-20
-23
-23
-20
-14
-6
2
6
4
1
2
8
15
19
21
22
21
18
15
10
5
1
0
1
1
-2
-8
-15
-19
-21
-21
-19
-16
-15
-15
-15
-14
-13
-14
-13
-12
-9
-5
-3
-4
-8
-11
-13
-13
-11
-7
-7
-10
-13
-14
-16
-19
-20
-19
-18
-18
-17
-21
-27
-33
-38
-39
-35
-28
-18
-12
-11
-11
-6
3
13
23
38
56
70
74
67
55
47
47
50
51
47
37
26
15
3
-12
-28
-37
-40
-38
-35
-33
-34
-38
-43
-45
-39
-28
-14
-3
6
14
20
25
27
28
29
31
37
44
45
40
30
19
10
4
3
5
6
2
-6
-13
-16
-18
-21
-21
-18
-13
-8
-4
-1
-2
-5
-4
1
9
15
18
19
17
15
12
10
9
8
7
7
6
3
-2
-9
-14
-16
-15
-13
-12
-13
-16
-19
-20
-19
-18
-17
-17
-14
-10
-8
-9
-11
-13
-13
-11
-8
-5
-6
-8
-11
-12
-12
-12
-14
-15
-16
-15
-17
-18
-22
-27
-31
-34
-32
-28
-23
-19
-17
-14
-9
-3
5
15
28
45
58
62
56
48
47
52
55
53
48
42
36
28
16
3
-10
-19
-24
-25
-25
-26
-31
-38
-44
-46
-41
-34
-26
-19
-13
-7
0
5
8
10
14
20
29
36
39
38
33
29
26
24
24
24
24
19
12
5
1
-3
-9
-12
-14
-12
-11
-12
-15
-18
-19
-17
-13
-8
-4
-1
2
4
5
6
7
9
10
12
14
14
12
9
5
2
0
0
-1
-3
-7
-11
-14
-16
-18
-20
-22
-22
-21
-19
-19
-20
-22
-22
-20
-17
-14
-13
-13
-13
-13
-12
-11
-10
-9
-9
-9
-8
-8
-12
-17
-21
-22
-22
-21
-19
-17
-14
-14
-14
-12
-7
1
10
22
34
41
41
34
31
34
42
47
46
42
40
39
34
25
13
5
2
0
0
-2
-6
-13
-22
-29
-31
-29
-26
-24
-23
-22
-19
-16
-15
-16
-15
-11
-4
4
10
13
14
13
13
15
18
20
23
27
32
33
27
19
15
15
16
15
12
9
6
1
-4
-9
-12
-15
-16
-15
-12
-11
-12
-16
-18
-18
-14
-9
-6
-4
-3
-2
0
0
0
-1
0
1
3
5
4
0
-4
-7
-8
-8
-8
-8
-9
-11
-13
-14
-15
-16
-17
-16
-14
-12
-12
-12
-12
-11
-10
-8
-7
-5
-5
-5
-4
-3
-4
-6
-7
-6
-4
-4
-5
-5
-4
-4
-3
-2
-2
-1
0
2
6
12
15
14
10
9
11
15
18
18
17
17
19
19
17
14
11
10
11
12
11
10
9
6
3
1
0
1
1
0
-2
-2
-2
-2
-4
-6
-7
-6
-5
-4
-4
-5
-5
-4
-4
-3
-4
-4
-3
-2
-1
0
1
2
2
1
0
1
2
3
3
2
3
3
2
1
0
-1
-2
-2
-2
-2
-3
-4
-5
-5
-5
-4
-3
-3
-3
-2
-2
-2
-1
-2
-2
-2
-1
0
0
-1
-2
-2
-2
-1
-2
-2
-1
-1
-2
-3
-3
-3
-3
-3
-4
-3
-3
-3
-3
-4
-4
-3
-3
-3
-4
-3
-3
-2
-3
-3
-4
-3
-3
-4
-4
-4
-4
-4
-4
-4
-3
-3
-2
-1
0
2
3
5
6
6
6
5
5
4
4
4
4
3
3
3
3
3
2
2
2
2
2
2
2
2
1
1
1
1
2
2
2
2
2
2
2
2
2
1
1
1
1
1
1
0
-1
-1
0
0
-1
-1
-1
0
0
0
-1
-1
-1
-1
-1
-1
-1
-1
-2
-2
-3
-3
-3
-3
-3
-3
-3
-3
-3
-3
-3
-3
-3
-2
-2
-2
-2
-2
-2
-2
-1
-1
-1
-1
-1
0
0
-1
-1
-1
-1
-1
-1
-1
-1
-1
-1
-1
-1
-1
-1
-1
-1
0
0
-1
-1
-1
-1
-1
-1
-2
-2
-2
-2
-2
-2
-3
-3
-3
-3
-3
-2
-1
-1
-2
-2
-2
-1
-1
-1
-1
-1
-1
0
0
-1
-1
0
0
0
1
1
1
1
1
1
1
1
1
2
2
2
2
2
2
2
2
2
3
3
3
3
3
3
2
2
2
2
2
2
2
2
2
1
1
1
1
1
1
0
0
0
-1
-1
-1
-1
-2
-2
-3
-3
-3
-3
-3
-3
-4
-4
-3
-3
-3
-3
-3
-3
-3
-3
-2
-2
-2
-2
-2
-1
-1
-1
-1
-1
-1
-1
-1
-1
-1
-1
-1
-1
0
0
0
0
0
0
0
0
0
0
0
0
0
0
0
0
0
-1
-1
-1
-1
-1
-1
-1
-2
-2
-2
-2
-2
-2
-2
-2
-2
-2
-2
-2
-2
-2
-2
-2
-2
-2
-2
-2
-2
-2
-1
-1
-1
-1
-1
-1
-1
0
0
0
0
1
1
1
1
1
2
2
2
2
3
3
3
3
3
3
3
3
3
3
3
3
3
3
3
2
2
2
2
2
2
1
1
0
0
0
0
-1
-1
-1
-2
-2
-2
-3
-3
-3
-3
-3
-3
-3
-3
-3
-3
-3
-3
-3
-3
-2
-2
-2
-2
-2
-2
-2
-2
-2
-1
-1
-1
-1
-1
-1
-1
-1
-1
-1
0
0
0
0
0
0
0
0
0
0
0
0
0
0
0
0
0
0
0
0
0
-1
-1
-1
-1
-1
-1
-1
-1
-2
-2
-2
-2
-2
-2
-2
-2
-2
-2
-2
-2
-2
-2
-2
-2
-2
-2
-2
-2
-2
-2
-2
-1
-1
-1
0
0
0
0
0
1
1
1
1
2
2
2
2
2
3
3
3
3
3
3
3
3
3
3
3
3
3
3
3
3
2
2
2
1
1
1
0
0
0
-1
-1
-1
-2
-2
-2
-2
-2
-3
-3
-3
-3
-3
-3
-3
-3
-3
-3
-3
-3
-3
-3
-3
-3
-3
-2
-2
-2
-2
-2
-2
-2
-2
-2
-1
-1
-1
-1
-1
-1
0
0
0
0
0
0
0
0
0
0
0
0
0
0
0
0
0
0
0
0
0
0
-1
-1
-1
-1
-1
-1
-1
-1
-1
-1
-2
-2
-2
-2
-2
-2
-2
-2
-2
-2
-2
-3
-2
-2
-2
-2
-2
-2
-2
-1
-1
-1
-1
-1
0
0
0
1
1
1
1
1
2
2
2
2
3
3
3
3
3
3
3
3
3
3
3
3
3
3
2
2
2
2
2
1
1
1
0
0
0
-1
-1
-1
-1
-1
-2
-2
-2
-2
-2
-2
-2
-2
-2
-2
-3
-3
-3
-3
-3
-3
-3
-3
-2
-2
-3
-3
-2
-2
-2
-2
-2
-2
-1
-1
-1
-1
-1
-1
-1
0
0
0
0
0
0
0
0
0
0
0
0
0
0
0
0
0
0
0
0
0
0
-1
-1
-1
-1
-1
-1
-1
-1
-1
-1
-2
-2
-2
-2
-2
-2
-2
-2
-2
-2
-2
-2
-2
-2
-2
-2
-2
-2
-1
-1
-1
-1
-1
0
0
0
0
1
1
1
1
1
2
2
2
3
3
3
3
3
3
3
3
3
3
3
3
3
2
2
2
2
2
2
1
1
1
0
0
0
0
0
-1
-1
-1
-1
-1
-2
-2
-2
-2
-2
-2
-2
-2
-2
-3
-3
-3
-3
-3
-3
-3
-3
-3
-3
-3
-2
-2
-2
-2
-2
-2
-2
-1
-1
-1
-1
-1
-1
0
0
0
0
0
0
0
0
0
0
0
0
0
0
0
0
0
0
0
0
0
0
-1
-1
-1
-1
-1
-1
-1
-1
-1
-1
-2
-2
-2
-2
-2
-2
-2
-2
-2
-2
-2
-2
-2
-2
-2
-2
-2
-2
-1
-1
-1
-1
-1
-1
0
0
0
0
1
1
1
1
1
2
2
2
2
2
2
3
3
3
2
2
3
3
3
2
2
2
2
2
2
1
1
1
1
1
0
0
0
0
0
-1
-1
-1
-1
-1
-1
-2
-2
-2
-2
-2
-2
-2
-2
-2
-2
-3
-3
-2
-2
-2
-2
-2
-2
-2
-2
-2
-2
-2
-2
-2
-1
-1
-1
-1
-1
-1
-1
0
0
0
0
0
0
0
0
0
0
0
0
0
0
0
0
0
0
0
0
0
-1
-1
-1
-1
-1
-1
-1
-1
-1
-1
-2
-2
-2
-2
-2
-2
-2
-2
-2
-2
-2
-2
-2
-2
-2
-2
-1
-1
-1
-1
-1
-1
-1
-1
0
0
0
0
0
1
1
1
1
1
2
2
2
2
2
2
2
2
2
2
2
2
2
2
2
2
2
1
1
1
1
1
1
1
0
0
0
0
0
0
0
-1
-1
-1
-1
-1
-2
-2
-2
-2
-2
-2
-2
-2
-2
-2
-2
-2
-2
-2
-2
-2
-2
-2
-2
-2
-2
-2
-2
-2
-1
-1
-1
-1
-1
-1
-1
0
0
0
0
0
0
0
0
0
0
0
0
0
0
0
0
0
0
0
0
0
-1
-1
-1
-1
-1
-1
-1
-1
-1
-1
-1
-1
-2
-2
-2
-2
-2
-2
-2
-2
-2
-2
-2
-2
-2
-2
-2
-1
-1
-1
-1
-1
-1
-1
0
0
0
0
0
0
1
1
1
1
1
1
2
2
2
2
2
2
2
2
2
2
2
2
2
2
2
1
1
1
1
1
1
1
0
0
0
0
0
0
0
0
-1
-1
-1
-1
-1
-2
-1
-2
-2
-2
-2
-2
-2
-2
-2
-2
-2
-2
-2
-2
-2
-2
-2
-2
-2
-1
-1
-1
-1
-1
-1
-1
-1
-1
-1
-1
0
0
0
0
0
0
0
0
0
0
0
0
0
0
0
0
0
0
0
0
0
0
-1
-1
-1
-1
-1
-1
-1
-1
-1
-1
-1
-1
-1
-2
-2
-2
-2
-2
-2
-2
-2
-2
-2
-2
-2
-2
-2
-2
-1
-1
-1
-1
-1
-1
-1
0
0
0
0
0
1
1
1
1
1
1
1
1
1
1
2
1
1
1
1
1
1
1
1
1
1
1
1
1
1
1
1
1
1
0
0
0
0
0
0
0
0
-1
-1
-1
-1
-1
-1
-1
-1
-2
-2
-2
-2
-2
-2
-2
-2
-2
-2
-2
-2
-2
-2
-1
-1
-1
-1
-1
-1
-1
0
0
0
-1
-1
-1
0
0
0
-1
0
0
0
0
0
0
0
0
0
0
0
0
0
0
0
0
0
0
-1
-1
-1
-1
-1
-1
-1
-1
-1
-1
-1
-1
-1
-1
-1
-1
-1
-2
-2
-2
-2
-2
-2
-2
-2
-1
-1
-1
-1
-1
-1
-1
-1
-1
0
0
0
0
0
0
0
0
0
0
1
1
1
1
1
1
1
1
1
1
1
1
1
1
1
1
1
1
1
1
1
1
1
1
1
1
1
0
0
0
0
0
0
0
-1
-1
-1
-1
-1
-1
-1
-2
-2
-2
-2
-2
-2
-2
-2
-2
-2
-2
-2
-2
-1
-1
-1
-1
-1
-1
-1
-1
-1
-1
-1
-1
-1
-1
-1
-1
0
0
0
0
0
0
0
0
0
0
0
0
0
0
0
0
0
0
0
0
0
0
-1
-1
-1
-1
-1
-1
-1
-1
-1
-1
-1
-1
-1
-1
-1
-1
-1
-1
-1
-1
-1
-1
-1
-1
-1
-1
-1
-1
-1
-1
-1
-1
-1
-1
-1
-1
-1
0
0
0
0
0
0
0
0
0
0
0
0
1
1
1
1
1
1
1
1
1
1
1
1
1
1
1
1
1
1
1
1
1
1
0
0
0
0
0
0
0
0
-1
-1
-1
-1
-1
-1
-1
-1
-1
-2
-2
-2
-2
-2
-2
-2
-2
-2
-2
-2
-2
-2
-2
-2
-1
-1
-1
-1
-1
-1
-1
-1
-1
-1
-1
0
0
0
0
0
0
0
0
0
0
0
0
0
0
0
0
0
0
0
0
0
0
0
0
0
0
0
0
-1
-1
-1
-1
-1
-1
-1
-1
-1
-1
-1
-1
-1
-1
-1
-1
-1
-1
-1
-1
-1
-1
-1
-1
-1
-1
-1
-1
-1
-1
-1
-1
0
0
0
0
0
0
0
0
0
0
0
0
0
1
1
1
1
1
1
1
1
1
1
1
1
0
0
0
0
0
0
0
0
0
0
0
0
0
0
-1
-1
-1
-1
-1
-1
-1
-1
-1
-1
-1
-1
-1
-1
-1
-1
-1
-1
-1
-1
-1
-1
-1
-1
-1
-1
-1
-1
-1
-1
-1
-1
-1
-1
-1
-1
-1
0
0
0
0
0
0
0
0
0
0
0
0
0
0
0
0
0
0
0
0
0
0
0
0
0
0
0
0
0
-1
-1
-1
-1
-1
-1
-1
-1
-1
-1
-1
-1
-1
-1
-1
-1
-1
-1
-1
-1
-1
-1
-1
-1
-1
-1
-1
-1
-1
-1
-1
-1
-1
-1
0
0
0
0
0
0
0
0
0
0
0
0
0
0
0
0
0
0
0
0
0
0
0
0
0
0
0
0
0
0
0
0
0
0
0
0
0
0
-1
-1
-1
-1
-1
-1
-1
-1
-1
-1
-1
-1
-1
-1
-1
-1
-1
-1
-1
-1
-1
-1
-1
-1
-1
-1
-1
-1
-1
-1
-1
0
0
0
0
0
0
0
0
0
0
0
0
0
0
0
0
0
0
0
0
0
0
0
0
0
0
0
0
0
0
0
0
0
0
-1
-1
-1
-1
-1
-1
-1
-1
-1
-1
-1
-1
-1
-1
-1
-1
-1
-1
-1
-1
-1
-1
-1
-1
-1
-1
-1
-1
-1
-1
-1
-1
-1
0
0
0
0
0
0
0
0
0
0
0
0
-1
0
0
0
0
-1
0
0
-1
0
0
0
0
0
0
0
0
0
0
0
0
0
0
0
-1
0
0
0
0
0
0
0
0
0
0
0
0
0
0
0
0
0
0
0
0
0
0
0
0
0
0
1
0
0
1
1
1
1
1
0
0
0
0
0
0
0
-1
-1
-1
-1
-1
-1
-1
-1
-2
-1
-1
-2
-2
-1
-1
-2
-2
-2
-2
-1
0
-1
-1
-1
-1
0
0
0
0
0
0
1
1
1
1
0
0
0
0
0
0
0
0
0
0
-1
-1
-1
-1
-1
-2
-2
-2
-2
-2
-2
-2
-2
-2
-2
-2
-1
-1
-1
-1
-1
-1
-1
-1
0
0
0
0
0
0
0
0
0
0
0
0
0
0
0
0
0
0
0
-1
0
0
0
0
-1
-1
-1
-1
-1
-1
-1
-1
-1
-1
-1
-1
-1
-1
-1
-1
-1
-1
-1
-1
-1
0
0
0
0
-1
-1
-1
-1
-1
0
-1
-1
-1
-1
0
-1
-1
-1
0
0
0
0
0
0
0
0
0
0
0
0
0
0
0
0
0
0
0
0
0
0
0
0
0
0
0
-1
-1
-1
-1
-1
-1
-1
-1
-1
-1
-1
-1
-1
-1
-1
-1
-1
-1
-1
-1
-1
-1
-1
-1
-1
-1
-1
-1
-1
-1
-1
-1
-1
0
0
-1
-1
-1
0
0
0
0
-1
-1
-1
-1
-1
-1
-1
-1
-1
0
0
0
0
0
0
0
0
0
0
0
0
0
0
0
0
0
0
0
-1
-1
-1
-1
-1
-1
-1
-1
-1
-1
-1
-1
-1
-1
-1
-1
-1
-1
-1
-1
0
0
0
0
0
0
0
0
0
0
0
0
0
0
0
0
0
0
0
0
0
0
-1
-1
0
0
-1
-1
-1
-1
-1
-1
-1
-1
-1
-1
-1
-1
-1
-1
-1
-1
-1
-1
-1
-1
-1
-1
-1
-1
-1
-1
-1
-1
-1
0
0
-1
-1
-1
-1
-1
-1
-1
-1
-1
-1
-1
-1
-1
-1
0
0
0
0
0
0
0
0
0
0
0
0
0
-1
-1
-1
-1
-1
-1
-1
-1
-1
-1
-1
-1
-1
-1
-1
-1
-1
-1
-1
-1
-1
-1
-1
-1
-1
-1
-1
-1
-1
-1
-1
-1
0
0
0
0
0
-1
-1
-1
0
-1
-1
0
-1
-1
-1
-1
-1
-1
-1
-1
-1
-1
-1
-1
-1
-1
-1
-1
-1
-1
0
0
-1
-1
-1
-1
-1
-1
-1
-1
-1
-1
-1
-1
-1
-1
-1
-1
-1
-1
0
-1
-1
0
-1
0
0
-1
0
0
0
0
0
0
0
0
0
0
0
0
0
0
0
0
0
0
-1
0
-1
-1
-1
-1
-1
-1
-1
-1
-1
0
-1
-1
-1
-1
-1
-1
-1
-1
-1
-1
-1
-1
-1
-1
-1
0
0
0
0
0
0
0
0
-1
-1
0
0
0
-1
-1
-1
0
-1
-1
-1
-1
0
0
0
-1
0
0
0
0
-1
-1
-1
-1
-1
-1
-1
-1
-1
-1
-1
-1
-1
-1
-1
-1
0
-1
-1
-1
-1
-1
-1
-1
-1
-1
-1
-1
-1
-1
-1
-1
0
-1
-1
0
0
0
0
0
0
0
0
0
0
0
0
0
0
0
0
0
0
0
0
0
0
0
0
0
0
-1
-1
-1
-1
-1
-1
-1
-1
-1
-1
-1
-1
-1
-1
-1
-1
-1
0
0
-1
-1
-1
-1
-1
-1
-1
-1
-1
0
-1
-1
-1
-1
-1
0
0
-1
0
0
0
0
0
0
0
0
0
0
0
0
0
-1
-1
-1
0
0
0
0
0
0
0
0
0
0
-1
-1
-1
-1
-1
-1
0
-1
-1
0
-1
-1
0
-1
-1
0
0
-1
-1
-1
-1
-1
-1
0
0
-1
-1
0
0
-1
-1
0
-1
-1
-1
-1
-1
-1
-1
-1
-1
-1
-1
-1
-1
-1
-1
-1
-1
-1
-1
0
0
0
0
0
0
0
0
-1
0
0
0
0
0
-1
0
0
0
0
0
-1
0
0
-1
-1
-1
-1
-1
-1
-1
-1
0
-1
-1
-1
-1
-1
-1
-1
-1
-1
-1
-1
-1
-1
-1
-1
-1
-1
-1
-1
-1
-1
-1
-1
-1
-1
-1
-1
-1
-1
-1
0
0
0
0
0
0
0
0
0
0
0
-1
-1
0
-1
-1
-1
-1
0
0
0
-1
-1
0
0
-1
-1
-1
-1
-1
-1
-1
-1
-1
-1
-1
-1
-1
-1
-1
-1
-1
-1
-1
-1
-1
-1
0
-1
-1
-1
-1
-1
-1
-1
-1
-1
-1
-1
-1
-1
0
0
-1
0
0
0
0
0
0
-1
-1
-1
-1
-1
-1
-1
-1
0
0
-1
0
0
0
0
0
0
0
0
0
0
0
-1
-1
-1
-1
-1
-1
-1
-1
-1
-1
0
0
-1
0
-1
-1
0
-1
-1
-1
-1
-1
-1
-1
-1
-1
-1
-1
-1
-1
-1
-1
-1
-1
0
0
0
0
0
0
-1
0
0
0
0
0
0
0
0
0
0
0
0
0
0
0
0
0
0
0
-1
-1
0
-1
-1
0
-1
0
0
-1
-1
0
-1
-1
-1
-1
-1
-1
-1
-1
-1
-1
-1
-1
-1
-1
-1
-1
-1
-1
0
-1
0
0
-1
0
0
0
0
0
0
0
0
0
0
0
0
0
0
0
0
0
0
0
0
0
0
0
0
0
0
0
0
0
0
0
-1
0
0
-1
0
0
-1
0
0
-1
0
0
0
0
0
0
0
0
0
0
0
0
0
0
0
0
-1
-1
0
0
0
0
0
-1
-1
0
-1
0
0
-1
-1
0
-1
-1
0
-1
-1
0
-1
0
0
0
0
0
0
-1
-1
0
0
-1
-1
0
-1
-1
0
-1
-1
-1
-1
-1
0
0
-1
-1
0
-1
-1
0
0
-1
0
0
-1
-1
-1
-1
-1
0
0
0
0
0
0
0
0
0
0
-1
-1
0
0
0
0
0
0
-1
-1
0
-1
-1
0
0
-1
0
0
-1
-1
0
-1
-1
0
-1
-1
0
-1
-1
0
-1
-1
-1
-1
0
0
-1
-1
-1
-1
-1
-1
0
-1
-1
-1
-1
-1
-1
-1
0
0
0
0
0
-1
0
0
0
0
0
-1
-1
0
0
-1
0
0
-1
-1
0
0
0
0
0
0
-1
0
0
-1
0
0
0
0
0
0
0
0
0
0
0
0
0
0
0
0
0
0
0
0
0
0
0
0
0
0
0
-1
0
0
-1
-1
-1
-1
-1
-1
-1
-1
-1
0
-1
-1
0
0
0
-1
0
0
-1
0
0
0
0
0
0
0
0
0
0
0
0
-1
0
0
0
-1
0
0
0
0
0
0
-1
0
0
0
0
0
0
-1
0
0
-1
0
0
0
0
0
0
0
0
0
0
0
0
0
0
0
-1
-1
0
-1
-1
0
-1
-1
0
0
-1
0
0
0
0
0
0
-1
-1
-1
-1
0
-1
-1
0
-1
0
-1
-1
-1
-1
-1
0
0
-1
-1
-1
-1
-1
-1
-1
0
0
-1
-1
0
-1
-1
0
-1
-1
-1
0
-1
-1
0
0
-1
-1
0
-1
-1
0
-1
-1
0
0
-1
-1
0
-1
-1
0
0
0
-1
-1
-1
0
-1
-1
0
0
-1
0
0
0
0
0
0
0
0
0
0
-1
0
-1
0
0
0
-1
-1
-1
0
0
0
0
0
0
0
0
0
-1
-1
-1
-1
-1
0
0
0
0
0
0
0
0
0
-1
0
0
0
0
0
-1
0
-1
-1
0
0
-1
-1
0
0
-1
0
0
-1
0
0
-1
-1
-1
-1
-1
-1
-1
-1
-1
-1
-1
-1
-1
-1
-1
-1
-1
-1
-1
-1
-1
0
0
-1
-1
-1
-1
0
0
0
-1
-1
0
-1
0
0
-1
0
-1
-1
-1
0
0
0
0
0
0
0
0
-1
0
0
0
0
0
-1
-1
-1
-1
-1
-1
-1
0
0
0
0
0
0
0
0
-1
-1
0
0
-1
-1
0
-1
0
0
0
0
0
0
0
0
0
0
0
0
0
0
0
0
0
0
0
0
0
0
0
0
0
0
0
0
-1
-1
0
-1
-1
0
-1
-1
-1
-1
-1
0
0
0
0
0
0
0
0
0
0
0
0
0
0
0
0
0
0
0
0
0
-1
0
0
-1
-1
-1
0
0
0
0
0
0
0
0
0
0
-1
0
0
0
-1
-1
0
-1
-1
-1
-1
-1
0
0
-1
-1
0
0
0
0
0
-1
0
0
-1
-1
0
0
0
-1
-1
-1
0
0
0
-1
0
0
0
0
0
-1
0
0
0
0
0
0
0
0
0
-1
0
0
0
0
0
-1
0
0
-1
-1
0
0
-1
0
-1
-1
0
-1
-1
-1
-1
-1
-1
0
-1
0
0
-1
0
0
0
0
0
0
0
0
0
0
0
-1
0
0
0
0
-1
-1
0
0
-1
-1
0
0
0
0
0
0
0
0
-1
-1
-1
-1
0
0
0
-1
0
0
0
-1
-1
-1
-1
-1
0
-1
-1
-1
-1
-1
0
-1
-1
0
0
0
-1
0
0
0
0
0
0
0
0
0
0
0
0
0
0
0
0
0
0
0
0
0
0
0
-1
0
0
0
0
0
0
0
0
0
0
0
0
0
0
0
0
0
0
0
0
0
0
0
0
0
0
0
0
0
0
0
0
0
0
0
0
0
0
0
0
0
0
0
0
0
0
0
0
0
0
0
0
-1
0
0
0
-1
-1
0
0
0
0
0
0
0
0
0
0
0
0
0
0
0
0
0
0
0
0
0
0
0
0
0
0
0
0
0
0
0
0
0
0
0
0
0
0
0
0
0
0
0
0
0
0
0
0
0
0
0
0
0
0
0
0
0
0
0
0
0
0
0
0
0
0
0
0
0
0
0
0
0
0
-1
0
0
0
0
0
0
0
0
0
0
-1
0
0
0
0
0
0
0
0
0
0
0
0
-1
0
0
-1
-1
0
-1
0
0
0
0
0
0
0
0
0
0
-1
0
0
0
-1
-1
-1
0
-1
-1
-1
0
-1
-1
0
0
0
0
0
0
0
-1
-1
-1
-1
-1
-1
-1
0
-1
-1
-1
-1
-1
0
-1
-1
0
0
0
-1
-1
-1
-1
0
-1
-1
0
-1
-1
0
-1
-1
-1
-1
0
-1
-1
-1
0
0
-1
0
0
0
-1
-1
-1
-1
-1
0
0
0
0
-1
0
0
0
0
0
0
0
0
-1
-1
-1
0
-1
-1
0
0
0
0
0
-1
0
-1
-1
-1
0
-1
0
0
-1
-1
0
-1
-1
-1
-1
-1
-1
-1
-1
-1
-1
-1
-1
-1
0
0
0
0
0
0
0
0
0
0
0
0
0
0
0
0
0
0
-1
-1
0
0
0
0
0
0
0
0
-1
-1
-1
-1
-1
-1
-1
-1
-1
-1
-1
-1
-1
-1
-1
-1
-1
-1
0
-1
-1
-1
-1
-1
0
-1
-1
-1
-1
-1
0
0
-1
-1
-1
0
0
-1
-1
0
-1
0
0
-1
-1
0
0
0
-1
0
0
0
0
0
-1
-1
0
-1
-1
0
-1
-1
0
-1
-1
-1
-1
0
0
0
-1
0
0
0
0
0
0
-1
-1
0
-1
-1
0
0
0
0
-1
-1
-1
0
0
0
-1
-1
0
0
-1
-1
0
0
0
0
-1
0
0
0
0
-1
-1
0
0
0
-1
-1
-1
-1
-1
-1
-1
-1
0
-1
-1
-1
-1
-1
-1
-1
-1
-1
-1
-1
-1
-1
-1
-1
-1
-1
-1
-1
-1
-1
-1
-1
-1
-1
0
