-2,-2,-2,0,-1,0,1,1,1,-1,-2,-2,0,-1,0,-1,0,1,-1,0,1,-1,0,-1,-2,-2,-2,-2,0,-1,-2,0
-2,-2,-2,0,-1,0,1,1,1,-1,-2,-2,0,-1,0,-1,0,1,-1,0,1,-1,0,-1,-2,-2,-2,-2,0,-1,-2,0
-2,-2,-2,0,-1,0,1,1,1,-1,-2,-2,0,-1,0,-1,0,1,-1,0,1,-1,0,-1,-2,-2,-2,-2,0,-1,-2,0
-2,-2,-2,0,-1,0,1,1,1,-1,-2,-2,0,-1,0,-1,0,1,-1,0,1,-1,0,-1,-2,-2,-2,-2,0,-1,-2,0
-2,-2,-2,0,-1,0,1,1,1,-1,-2,-2,0,-1,0,-1,0,1,-1,0,1,-1,0,-1,-2,-2,-2,-2,0,-1,-2,0
-2,-2,-2,0,-1,0,1,1,1,-1,-2,-2,0,-1,0,-1,0,1,-1,0,1,-1,0,-1,-2,-2,-2,-2,0,-1,-2,0
-2,-2,-2,0,-1,0,1,1,1,-1,-2,-2,0,-1,0,-1,0,1,-1,0,1,-1,0,-1,-2,-2,-2,-2,0,-1,-2,0
-3,-3,-3,-1,-2,-1,0,0,0,-2,-3,-3,-1,-2,-1,-2,-1,0,-2,-1,0,-2,-1,-2,-3,-3,-3,-3,-1,-2,-3,0
-2,-2,-2,-1,-2,-1,0,0,0,-1,-2,-2,-1,-2,-1,-2,-1,0,-1,-1,0,-1,-1,-2,-2,-2,-2,-2,-1,-2,-2,0
-2,-2,-2,0,-1,0,1,1,1,-1,-2,-2,0,-1,0,-1,0,1,-1,0,1,-1,0,-1,-2,-2,-2,-2,0,-1,-2,0
-2,-2,-2,0,-1,0,1,1,1,-1,-2,-2,0,-1,0,-1,0,1,-1,0,1,-1,0,-1,-2,-2,-2,-2,0,-1,-2,0
-2,-2,-2,0,-1,0,1,1,1,-1,-2,-2,0,-1,0,-1,0,1,-1,0,1,-1,0,-1,-2,-2,-2,-2,0,-1,-2,0
-2,-2,-2,0,-1,0,1,1,1,-1,-2,-2,0,-1,0,-1,0,1,-1,0,1,-1,0,-1,-2,-2,-2,-2,0,-1,-2,0
-2,-2,-2,0,-1,0,1,1,1,-1,-2,-2,0,-1,0,-1,0,1,-1,0,1,-1,0,-1,-2,-2,-2,-2,0,-1,-2,0
-2,-2,-2,0,-1,0,1,1,1,-1,-2,-2,0,-1,0,-1,0,1,-1,0,1,-1,0,-1,-2,-2,-2,-2,0,-1,-2,0
-2,-2,-2,0,-1,0,1,1,1,-1,-2,-2,0,-1,0,-1,0,1,-1,0,1,-1,0,-1,-2,-2,-2,-2,0,-1,-2,0
-2,-2,-2,-1,-2,-1,0,0,0,-1,-2,-2,-1,-2,-1,-2,-1,0,-1,-1,0,-1,-1,-2,-2,-2,-2,-2,-1,-2,-2,0
-2,-2,-2,0,-1,0,1,1,1,-1,-2,-2,0,-1,0,-1,0,1,-1,0,1,-1,0,-1,-2,-2,-2,-2,0,-1,-2,0
-2,-2,-2,0,-1,0,1,1,1,-1,-2,-2,0,-1,0,-1,0,1,-1,0,1,-1,0,-1,-2,-2,-2,-2,0,-1,-2,0
-2,-2,-2,0,-1,0,1,1,1,-1,-2,-2,0,-1,0,-1,0,1,-1,0,1,-1,0,-1,-2,-2,-2,-2,0,-1,-2,0
-2,-2,-2,0,-1,0,1,1,1,-1,-2,-2,0,-1,0,-1,0,1,-1,0,1,-1,0,-1,-2,-2,-2,-2,0,-1,-2,0
-2,-2,-2,0,-1,0,1,1,1,-1,-2,-2,0,-1,0,-1,0,1,-1,0,1,-1,0,-1,-2,-2,-2,-2,0,-1,-2,0
-2,-2,-2,0,-1,0,1,1,1,-1,-2,-2,0,-1,0,-1,0,1,-1,0,1,-1,0,-1,-2,-2,-2,-2,0,-1,-2,0
-2,-2,-2,0,-1,0,1,1,1,-1,-2,-2,0,-1,0,-1,0,1,-1,0,1,-1,0,-1,-2,-2,-2,-2,0,-1,-2,0
-2,-2,-2,0,-1,0,1,1,1,-1,-2,-2,0,-1,0,-1,0,1,-1,0,1,-1,0,-1,-2,-2,-2,-2,0,-1,-2,0
-2,-2,-2,0,-1,0,1,1,1,-1,-2,-2,0,-1,0,-1,0,1,-1,0,1,-1,0,-1,-2,-2,-2,-2,0,-1,-2,0
-2,-2,-2,0,-1,0,1,1,1,-1,-2,-2,0,-1,0,-1,0,1,-1,0,1,-1,0,-1,-2,-2,-2,-2,0,-1,-2,0
-2,-2,-2,0,-1,0,1,1,1,-1,-2,-2,0,-1,0,-1,0,1,-1,0,1,-1,0,-1,-2,-2,-2,-2,0,-1,-2,0
-2,-2,-2,0,-1,0,1,1,1,-1,-2,-2,0,-1,0,-1,0,1,-1,0,1,-1,0,-1,-2,-2,-2,-2,0,-1,-2,0
-2,-2,-2,0,-1,0,1,1,1,-1,-2,-2,0,-1,0,-1,0,1,-1,0,1,-1,0,-1,-2,-2,-2,-2,0,-1,-2,0
-2,-2,-2,0,-1,0,1,1,1,-1,-2,-2,0,-1,0,-1,0,1,-1,0,1,-1,0,-1,-2,-2,-2,-2,0,-1,-2,0
-2,-2,-2,0,-1,0,1,1,1,-1,-2,-2,0,-1,0,-1,0,1,-1,0,1,-1,0,-1,-2,-2,-2,-2,0,-1,-2,0
-2,-2,-2,0,-1,0,1,1,1,-1,-2,-2,0,-1,0,-1,0,1,-1,0,1,-1,0,-1,-2,-2,-2,-2,0,-1,-2,0
-2,-2,-2,0,-1,0,1,1,1,-1,-2,-2,0,-1,0,-1,0,1,-1,0,1,-1,0,-1,-2,-2,-2,-2,0,-1,-2,0
-2,-2,-2,0,-1,0,1,1,1,-1,-2,-2,0,-1,0,-1,0,1,-1,0,1,-1,0,-1,-2,-2,-2,-2,0,-1,-2,0
-2,-2,-2,0,-1,0,1,1,1,-1,-2,-2,0,-1,0,-1,0,1,-1,0,1,-1,0,-1,-2,-2,-2,-2,0,-1,-2,0
-2,-2,-2,0,-1,0,1,1,1,-1,-2,-2,0,-1,0,-1,0,1,-1,0,1,-1,0,-1,-2,-2,-2,-2,0,-1,-2,0
-2,-2,-2,0,-1,0,1,1,1,-1,-2,-2,0,-1,0,-1,0,1,-1,0,1,-1,0,-1,-2,-2,-2,-2,0,-1,-2,0
-2,-2,-2,0,-1,0,1,1,1,-1,-2,-2,0,-1,0,-1,0,1,-1,0,1,-1,0,-1,-2,-2,-2,-2,0,-1,-2,0
-2,-2,-2,0,-1,0,1,1,1,-1,-2,-2,0,-1,0,-1,0,1,-1,0,1,-1,0,-1,-2,-2,-2,-2,0,-1,-2,0
-2,-2,-2,-1,-2,-1,0,0,0,-1,-2,-2,-1,-2,-1,-2,-1,0,-1,-1,0,-1,-1,-2,-2,-2,-2,-2,-1,-2,-2,0
-2,-2,-2,-1,-2,-1,-1,-1,0,-1,-2,-2,-1,-2,-1,-2,-1,-1,-2,-1,-1,-2,-1,-2,-2,-2,-2,-2,-1,-2,-2,0
-2,-2,-2,-1,-2,-1,0,0,0,-1,-2,-2,-1,-2,-1,-2,-1,0,-1,-1,0,-1,-1,-2,-2,-2,-2,-2,-1,-2,-2,0
-2,-2,-2,-1,-2,-1,-1,-1,-1,-2,-2,-2,-1,-2,-1,-2,-1,-1,-2,-1,-1,-2,-1,-2,-2,-2,-2,-2,-1,-2,-2,0
-2,-2,-2,-1,-2,-1,0,0,0,-1,-2,-2,-1,-2,-1,-2,-1,0,-1,-1,0,-1,-1,-2,-2,-2,-2,-2,-1,-2,-2,0
-2,-2,-2,-1,-2,-1,0,0,0,-1,-2,-2,-1,-2,-1,-2,-1,0,-1,-1,0,-1,-1,-2,-2,-2,-2,-2,-1,-2,-2,0
-4,-4,-4,-10,-4,-8,-9,-7,-7,-3,-4,-4,-10,-4,-8,-3,-8,-9,-4,-8,-9,-4,-8,-3,-4,-4,-4,-4,-10,-4,-4,0
-6,-6,-5,-11,-6,-9,-13,-11,-10,-6,-6,-6,-12,-7,-9,-4,-9,-13,-7,-8,-13,-7,-8,-4,-5,-5,-6,-5,-11,-6,-5,-5
-7,-6,-6,-17,-6,-14,-15,-12,-12,-5,-6,-6,-17,-6,-14,-4,-14,-15,-6,-14,-15,-6,-14,-4,-6,-7,-6,-6,-17,-6,-7,0
-7,-6,-6,-13,-6,-10,-13,-11,-10,-5,-6,-7,-13,-7,-10,-5,-11,-13,-6,-10,-13,-6,-9,-5,-6,-7,-6,-6,-13,-7,-7,1
-6,-5,-5,-10,-5,-8,-7,-6,-5,-3,-5,-5,-10,-5,-8,-4,-8,-7,-4,-8,-8,-4,-8,-4,-5,-5,-5,-5,-10,-5,-5,-2
-7,-6,-6,-10,-5,-8,-8,-8,-6,-5,-8,-7,-10,-5,-8,-4,-8,-8,-5,-8,-8,-5,-8,-4,-7,-7,-6,-6,-9,-5,-8,1
-5,-5,-5,-7,-4,-6,-6,-4,-4,-4,-5,-5,-7,-4,-6,-4,-6,-6,-4,-6,-6,-4,-6,-4,-4,-5,-5,-5,-7,-4,-5,2
-4,-4,-4,-6,-5,-5,-6,-6,-5,-4,-4,-4,-6,-5,-5,-4,-5,-6,-5,-4,-6,-5,-4,-4,-4,-4,-4,-4,-6,-5,-5,0
-5,-5,-5,-8,-6,-7,-9,-8,-8,-6,-6,-5,-7,-6,-7,-6,-6,-9,-7,-6,-8,-6,-6,-5,-6,-5,-4,-5,-8,-6,-6,2
-4,-4,-4,-6,-5,-4,-5,-4,-4,-4,-4,-4,-6,-4,-4,-4,-4,-5,-4,-3,-5,-4,-3,-4,-4,-4,-4,-4,-6,-5,-4,-1
-4,-4,-4,-6,-5,-6,-8,-8,-7,-6,-5,-4,-6,-5,-6,-5,-6,-8,-6,-5,-7,-6,-5,-5,-5,-4,-4,-4,-6,-5,-5,-1
-4,-4,-4,-3,-3,-2,-3,-3,-3,-4,-4,-4,-3,-3,-2,-3,-2,-3,-4,-2,-3,-4,-2,-3,-4,-4,-4,-4,-3,-3,-4,-1
-5,-5,-5,-8,-5,-7,-10,-10,-9,-5,-5,-6,-9,-5,-7,-5,-7,-10,-6,-7,-10,-6,-7,-4,-5,-5,-5,-5,-8,-5,-5,0
-8,-7,-6,-6,-6,-5,-7,-9,-8,-8,-9,-8,-6,-6,-4,-6,-4,-7,-7,-4,-7,-7,-4,-5,-7,-7,-7,-6,-6,-6,-7,3
-9,-8,-8,-7,-6,-7,-12,-12,-12,-8,-9,-9,-8,-6,-7,-7,-7,-12,-8,-7,-12,-8,-7,-6,-8,-9,-8,-8,-7,-6,-8,-5
-8,-8,-8,-8,-6,-7,-10,-10,-10,-8,-8,-9,-8,-5,-7,-6,-7,-10,-7,-7,-10,-7,-7,-6,-8,-8,-8,-8,-8,-6,-8,-1
-10,-10,-9,-7,-7,-7,-9,-9,-10,-9,-11,-10,-7,-7,-7,-8,-7,-9,-9,-7,-8,-8,-7,-8,-10,-10,-9,-9,-7,-7,-10,0
-10,-10,-10,-9,-8,-9,-12,-15,-14,-10,-11,-11,-9,-8,-9,-9,-9,-12,-10,-9,-12,-9,-9,-8,-10,-10,-10,-10,-9,-8,-9,1
-8,-8,-8,-7,-7,-7,-13,-13,-13,-10,-9,-8,-7,-7,-8,-7,-7,-13,-9,-6,-12,-9,-6,-7,-8,-8,-8,-8,-7,-7,-8,0
-11,-9,-9,-12,-11,-11,-17,-18,-17,-14,-14,-11,-12,-10,-11,-11,-11,-17,-14,-10,-16,-13,-10,-10,-12,-11,-9,-9,-12,-11,-13,0
-13,-11,-10,-18,-13,-15,-23,-24,-23,-17,-17,-14,-18,-12,-14,-13,-14,-23,-16,-13,-23,-16,-13,-12,-15,-13,-11,-10,-17,-13,-16,0
-13,-12,-10,-17,-12,-15,-22,-24,-23,-18,-16,-14,-17,-12,-15,-13,-15,-22,-16,-14,-22,-15,-14,-12,-14,-13,-11,-10,-17,-12,-15,-3
-12,-10,-9,-19,-11,-16,-21,-22,-21,-17,-14,-12,-18,-10,-16,-13,-16,-21,-15,-15,-21,-15,-15,-12,-13,-11,-10,-9,-19,-11,-14,-3
-13,-11,-11,-21,-15,-18,-25,-24,-23,-16,-17,-12,-20,-15,-18,-14,-18,-25,-17,-17,-25,-17,-17,-13,-15,-12,-11,-11,-21,-15,-16,-1
-14,-11,-11,-21,-13,-19,-27,-28,-27,-20,-16,-14,-21,-13,-19,-14,-18,-27,-18,-17,-26,-18,-17,-13,-14,-13,-11,-11,-21,-13,-15,-3
-16,-13,-12,-23,-16,-21,-31,-31,-29,-21,-21,-16,-24,-16,-21,-16,-21,-31,-21,-19,-30,-20,-19,-15,-17,-15,-13,-12,-23,-16,-17,0
-18,-14,-13,-26,-20,-23,-37,-37,-36,-26,-22,-18,-26,-19,-23,-19,-22,-37,-26,-21,-36,-26,-21,-18,-18,-17,-14,-13,-26,-19,-17,-2
-18,-14,-13,-30,-19,-27,-37,-36,-34,-25,-24,-18,-29,-19,-27,-18,-27,-37,-24,-26,-36,-24,-25,-17,-20,-17,-14,-13,-30,-19,-22,-1
-16,-14,-13,-28,-16,-26,-34,-35,-34,-26,-20,-16,-28,-16,-26,-17,-25,-34,-24,-24,-33,-24,-24,-16,-18,-15,-13,-13,-28,-16,-19,3
-17,-14,-13,-29,-19,-26,-38,-40,-39,-27,-21,-17,-28,-19,-26,-20,-26,-38,-27,-24,-37,-26,-24,-19,-17,-16,-14,-13,-29,-19,-18,-19
-17,-14,-13,-24,-17,-22,-37,-40,-39,-27,-18,-16,-23,-16,-22,-18,-22,-37,-26,-20,-36,-25,-20,-17,-15,-16,-14,-13,-24,-17,-16,2
-15,-14,-12,-21,-17,-22,-34,-37,-36,-25,-18,-16,-21,-17,-21,-18,-21,-34,-24,-20,-34,-24,-20,-17,-15,-15,-13,-12,-21,-17,-16,-11
-12,-11,-10,-22,-16,-22,-32,-33,-32,-23,-17,-13,-22,-16,-21,-15,-21,-32,-21,-20,-32,-21,-20,-15,-15,-12,-11,-10,-22,-16,-15,1
-12,-9,-9,-20,-13,-19,-27,-31,-30,-22,-16,-12,-20,-12,-19,-15,-18,-27,-20,-17,-27,-20,-17,-14,-12,-11,-9,-9,-20,-13,-13,-2
-13,-12,-12,-24,-15,-23,-35,-35,-34,-23,-18,-15,-23,-15,-23,-15,-22,-35,-21,-21,-34,-20,-21,-14,-15,-13,-12,-12,-24,-15,-15,1
-9,-9,-8,-12,-7,-12,-18,-18,-18,-12,-11,-9,-11,-7,-12,-8,-11,-18,-11,-10,-18,-10,-10,-7,-8,-8,-9,-8,-12,-7,-8,-6
-7,-7,-7,-10,-7,-10,-16,-17,-17,-12,-10,-8,-9,-7,-10,-8,-9,-16,-11,-9,-15,-10,-9,-7,-7,-7,-7,-7,-10,-7,-7,0
-8,-8,-7,-15,-8,-14,-20,-20,-20,-14,-11,-8,-14,-9,-13,-8,-13,-20,-12,-12,-20,-12,-12,-8,-8,-8,-7,-8,-15,-8,-9,-3
-7,-7,-7,-11,-8,-11,-16,-17,-16,-10,-8,-7,-11,-8,-11,-7,-11,-16,-9,-10,-16,-9,-10,-6,-6,-7,-7,-7,-11,-8,-7,1
-5,-5,-5,-6,-5,-6,-10,-10,-9,-6,-5,-5,-5,-5,-6,-5,-6,-9,-6,-5,-9,-6,-5,-5,-5,-5,-5,-5,-6,-5,-5,1
-7,-7,-7,-7,-6,-7,-10,-11,-10,-7,-7,-7,-7,-6,-7,-6,-7,-10,-7,-6,-10,-7,-6,-5,-6,-6,-7,-7,-7,-6,-7,0
-4,-4,-4,-1,-3,-2,-2,-2,-2,-3,-4,-4,-1,-3,-1,-3,-2,-2,-3,-2,-1,-3,-1,-3,-4,-4,-4,-4,-1,-3,-4,0
-6,-6,-6,-6,-6,-5,-7,-7,-7,-5,-5,-6,-6,-6,-5,-5,-4,-7,-5,-4,-6,-5,-4,-5,-5,-6,-6,-6,-6,-6,-6,0
-2,-2,-2,-1,-2,-1,-1,0,0,-1,-2,-2,-1,-2,-1,-2,-1,-1,-2,-1,-1,-2,-1,-2,-2,-2,-2,-2,-1,-2,-2,0
-2,-2,-2,-1,-2,-1,-1,0,0,-1,-2,-2,-1,-2,-1,-2,-1,-1,-2,-1,-1,-2,-1,-2,-2,-2,-2,-2,-1,-2,-2,0
-2,-2,-2,-1,-2,-1,-1,0,0,-1,-2,-2,-1,-2,-1,-2,-1,-1,-2,-1,-1,-2,-1,-2,-2,-2,-2,-2,-1,-2,-2,0
-2,-2,-2,0,-1,0,1,1,1,-1,-2,-2,0,-1,0,-1,0,1,-1,0,1,-1,0,-1,-2,-2,-2,-2,0,-1,-2,0
-2,-2,-2,-1,-2,-1,-1,0,0,-1,-2,-2,-1,-2,-1,-2,-1,-1,-2,-1,-1,-2,-1,-2,-2,-2,-2,-2,-1,-2,-2,0
-2,-2,-2,-1,-1,-1,0,0,0,-1,-2,-2,-1,-1,-1,-1,-1,0,-1,-1,0,-1,-1,-1,-2,-2,-2,-2,-1,-1,-2,0
-2,-2,-2,-1,-2,-1,-1,0,0,-1,-2,-2,-1,-2,-1,-2,-1,-1,-2,-1,-1,-2,-1,-2,-2,-2,-2,-2,-1,-2,-2,0
-2,-2,-2,-1,-2,-1,0,0,0,-1,-2,-2,-1,-2,-1,-2,-1,0,-1,-1,0,-1,-1,-2,-2,-2,-2,-2,-1,-2,-2,0
-2,-2,-2,-1,-2,-1,-1,0,0,-1,-2,-2,-1,-2,-1,-2,-1,-1,-2,-1,-1,-2,-1,-2,-2,-2,-2,-2,-1,-2,-2,0
-2,-2,-2,0,-1,0,1,1,1,-1,-2,-2,0,-1,0,-1,0,1,-1,0,1,-1,0,-1,-2,-2,-2,-2,0,-1,-2,0
-2,-2,-2,0,-1,0,1,1,1,-1,-2,-2,0,-1,0,-1,0,1,-1,0,1,-1,0,-1,-2,-2,-2,-2,0,-1,-2,0
-2,-2,-2,0,-1,0,1,1,1,-1,-2,-2,0,-1,0,-1,0,1,-1,0,1,-1,0,-1,-2,-2,-2,-2,0,-1,-2,0
-2,-2,-2,0,-1,0,1,1,1,-1,-2,-2,0,-1,0,-1,0,1,-1,0,1,-1,0,-1,-2,-2,-2,-2,0,-1,-2,0
-2,-2,-2,0,-1,0,1,1,1,-1,-2,-2,0,-1,0,-1,0,1,-1,0,1,-1,0,-1,-2,-2,-2,-2,0,-1,-2,0
-2,-2,-2,0,-1,0,1,1,1,-1,-2,-2,0,-1,0,-1,0,1,-1,0,1,-1,0,-1,-2,-2,-2,-2,0,-1,-2,0
-2,-2,-2,0,-1,0,1,1,1,-1,-2,-2,0,-1,0,-1,0,1,-1,0,1,-1,0,-1,-2,-2,-2,-2,0,-1,-2,0
-2,-2,-2,0,-1,0,1,1,1,-1,-2,-2,0,-1,0,-1,0,1,-1,0,1,-1,0,-1,-2,-2,-2,-2,0,-1,-2,0
-2,-2,-2,0,-1,0,1,1,1,-1,-2,-2,0,-1,0,-1,0,1,-1,0,1,-1,0,-1,-2,-2,-2,-2,0,-1,-2,0
-5,-4,-4,-8,-4,-5,-6,-5,-5,-3,-5,-5,-8,-4,-5,-4,-5,-6,-4,-6,-7,-4,-6,-4,-5,-5,-4,-4,-8,-4,-5,0
-4,-4,-4,-5,-3,-4,-4,-3,-3,-2,-4,-4,-5,-3,-4,-3,-4,-4,-3,-4,-4,-3,-4,-3,-4,-4,-4,-4,-5,-3,-4,-2
-4,-4,-4,-5,-3,-4,-4,-3,-3,-2,-3,-4,-5,-3,-4,-3,-4,-4,-2,-3,-4,-2,-3,-3,-3,-4,-4,-4,-5,-3,-4,2
-5,-5,-5,-5,-3,-4,-3,-3,-2,-3,-3,-4,-5,-3,-4,-3,-4,-3,-3,-3,-3,-3,-3,-3,-4,-5,-4,-5,-5,-3,-4,-1
-4,-4,-4,-4,-3,-3,-4,-3,-3,-2,-3,-4,-4,-3,-3,-3,-3,-4,-3,-3,-4,-3,-2,-3,-3,-4,-4,-4,-4,-3,-3,1
-4,-4,-4,-3,-2,-2,-2,-1,-1,-2,-3,-4,-3,-2,-2,-2,-2,-2,-2,-2,-1,-2,-2,-2,-3,-4,-4,-4,-3,-2,-3,-1
-3,-3,-3,-3,-2,-2,-2,-1,-1,-1,-2,-3,-3,-2,-2,-2,-2,-2,-2,-2,-2,-2,-2,-2,-2,-3,-3,-3,-3,-2,-2,0
-3,-3,-3,-2,-2,-2,-2,-1,-1,-1,-2,-3,-2,-2,-2,-2,-2,-2,-2,-2,-2,-2,-2,-2,-2,-3,-3,-3,-2,-2,-2,-1
-3,-3,-3,-3,-2,-2,-2,-1,-1,-2,-3,-3,-3,-2,-2,-2,-2,-2,-2,-2,-2,-2,-2,-2,-3,-3,-3,-3,-3,-2,-3,0
-2,-2,-2,-1,-2,-1,-1,0,0,-1,-2,-2,-1,-2,-1,-2,-1,-1,-2,-1,-1,-2,-1,-2,-2,-2,-2,-2,-1,-2,-2,-1
-2,-2,-2,-1,-2,-1,-1,0,0,-1,-2,-2,-1,-2,-1,-2,-1,-1,-2,-1,-1,-2,-1,-2,-2,-2,-2,-2,-1,-2,-2,0
-2,-2,-2,-1,-2,-1,0,0,0,-1,-2,-2,-1,-2,-1,-2,-1,0,-1,-1,0,-1,-1,-2,-2,-2,-2,-2,-1,-2,-2,0
-2,-2,-2,0,-1,0,1,1,1,-1,-2,-2,0,-1,0,-1,0,1,-1,0,1,-1,0,-1,-2,-2,-2,-2,0,-1,-2,0
-2,-2,-2,0,-1,0,1,1,1,-1,-2,-2,0,-1,0,-1,0,1,-1,0,1,-1,0,-1,-2,-2,-2,-2,0,-1,-2,0
-2,-2,-2,0,-1,0,1,1,1,-1,-2,-2,0,-1,0,-1,0,1,-1,0,1,-1,0,-1,-2,-2,-2,-2,0,-1,-2,0
-2,-2,-2,0,-1,0,1,1,1,-1,-2,-2,0,-1,0,-1,0,1,-1,0,1,-1,0,-1,-2,-2,-2,-2,0,-1,-2,0
